34.27727	0.58192
34.28487	0.57925
34.29246	0.57658
34.30005	0.57393
34.30765	0.57129
34.31524	0.56866
34.32284	0.56605
34.33043	0.56345
34.33802	0.56085
34.34562	0.55827
34.35321	0.55571
34.36081	0.55315
34.3684	0.55061
34.37599	0.54807
34.38359	0.54555
34.39118	0.54304
34.39878	0.54055
34.40637	0.53806
34.41397	0.53558
34.42156	0.53312
34.42915	0.53067
34.43675	0.52823
34.44434	0.5258
34.45194	0.52338
34.45953	0.52097
34.46712	0.51857
34.47472	0.51618
34.48231	0.51381
34.48991	0.51144
34.4975	0.50909
34.5051	0.50675
34.51269	0.50442
34.52028	0.50209
34.52788	0.49978
34.53547	0.49748
34.54307	0.49519
34.55066	0.49291
34.55825	0.49064
34.56585	0.48839
34.57344	0.48614
34.58104	0.4839
34.58863	0.48167
34.59623	0.47945
34.60382	0.47725
34.61141	0.47505
34.61901	0.47286
34.6266	0.47068
34.6342	0.46852
34.64179	0.46636
34.64938	0.46421
34.65698	0.46207
34.66457	0.45995
34.67217	0.45783
34.67976	0.45572
34.68736	0.45362
34.69495	0.45153
34.70254	0.44945
34.71014	0.44738
34.71773	0.44532
34.72533	0.44327
34.73292	0.44123
34.74051	0.43919
34.74811	0.43717
34.7557	0.43516
34.7633	0.43315
34.77089	0.43116
34.77849	0.42917
34.78608	0.42719
34.79367	0.42522
34.80127	0.42326
34.80886	0.42131
34.81646	0.41937
34.82405	0.41744
34.83164	0.41551
34.83924	0.4136
34.84683	0.41169
34.85443	0.40979
34.86202	0.4079
34.86961	0.40602
34.87721	0.40415
34.8848	0.40229
34.8924	0.40043
34.89999	0.39859
34.90759	0.39675
34.91518	0.39492
34.92277	0.3931
34.93037	0.39129
34.93796	0.38948
34.94556	0.38769
34.95315	0.3859
34.96074	0.38412
34.96834	0.38235
34.97593	0.38058
34.98353	0.37883
34.99112	0.37708
34.99872	0.37534
35.00631	0.37361
35.0139	0.37188
35.0215	0.37017
35.02909	0.36846
35.03669	0.36676
35.04428	0.36507
35.05187	0.36338
35.05947	0.36171
35.06706	0.36004
35.07466	0.35838
35.08225	0.35672
35.08985	0.35507
35.09744	0.35344
35.10503	0.3518
35.11263	0.35018
35.12022	0.34856
35.12782	0.34695
35.13541	0.34535
35.143	0.34376
35.1506	0.34217
35.15819	0.34059
35.16579	0.33902
35.17338	0.33745
35.18098	0.33589
35.18857	0.33434
35.19616	0.3328
35.20376	0.33126
35.21135	0.32973
35.21895	0.32821
35.22654	0.32669
35.23413	0.32518
35.24173	0.32368
35.24932	0.32218
35.25692	0.3207
35.26451	0.31921
35.2721	0.31774
35.2797	0.31627
35.28729	0.31481
35.29489	0.31335
35.30248	0.3119
35.31008	0.31046
35.31767	0.30903
35.32526	0.3076
35.33286	0.30618
35.34045	0.30476
35.34805	0.30335
35.35564	0.30195
35.36323	0.30055
35.37083	0.29916
35.37842	0.29778
35.38602	0.2964
35.39361	0.29503
35.40121	0.29367
35.4088	0.29231
35.41639	0.29096
35.42399	0.28961
35.43158	0.28827
35.43918	0.28694
35.44677	0.28561
35.45436	0.28429
35.46196	0.28297
35.46955	0.28166
35.47715	0.28036
35.48474	0.27906
35.49234	0.27777
35.49993	0.27649
35.50752	0.27521
35.51512	0.27393
35.52271	0.27266
35.53031	0.2714
35.5379	0.27014
35.54549	0.26889
35.55309	0.26765
35.56068	0.26641
35.56828	0.26517
35.57587	0.26395
35.58347	0.26272
35.59106	0.26151
35.59865	0.2603
35.60625	0.25909
35.61384	0.25789
35.62144	0.25669
35.62903	0.25551
35.63662	0.25432
35.64422	0.25314
35.65181	0.25197
35.65941	0.2508
35.667	0.24964
35.67459	0.24848
35.68219	0.24733
35.68978	0.24618
35.69738	0.24504
35.70497	0.24391
35.71257	0.24278
35.72016	0.24165
35.72775	0.24053
35.73535	0.23941
35.74294	0.2383
35.75054	0.2372
35.75813	0.2361
35.76572	0.235
35.77332	0.23391
35.78091	0.23283
35.78851	0.23175
35.7961	0.23067
35.8037	0.2296
35.81129	0.22853
35.81888	0.22747
35.82648	0.22642
35.83407	0.22537
35.84167	0.22432
35.84926	0.22328
35.85685	0.22224
35.86445	0.22121
35.87204	0.22018
35.87964	0.21916
35.88723	0.21814
35.89483	0.21713
35.90242	0.21612
35.91001	0.21512
35.91761	0.21412
35.9252	0.21312
35.9328	0.21213
35.94039	0.21115
35.94798	0.21017
35.95558	0.20919
35.96317	0.20822
35.97077	0.20725
35.97836	0.20629
35.98596	0.20533
35.99355	0.20437
36.00114	0.20342
36.00874	0.20248
36.01633	0.20153
36.02393	0.2006
36.03152	0.19966
36.03911	0.19874
36.04671	0.19781
36.0543	0.19689
36.0619	0.19597
36.06949	0.19506
36.07709	0.19415
36.08468	0.19325
36.09227	0.19235
36.09987	0.19146
36.10746	0.19057
36.11506	0.18968
36.12265	0.18879
36.13024	0.18792
36.13784	0.18704
36.14543	0.18617
36.15303	0.1853
36.16062	0.18444
36.16821	0.18358
36.17581	0.18273
36.1834	0.18187
36.191	0.18103
36.19859	0.18018
36.20619	0.17934
36.21378	0.17851
36.22137	0.17768
36.22897	0.17685
36.23656	0.17602
36.24416	0.1752
36.25175	0.17438
36.25934	0.17357
36.26694	0.17276
36.27453	0.17196
36.28213	0.17115
36.28972	0.17036
36.29732	0.16956
36.30491	0.16877
36.3125	0.16798
36.3201	0.1672
36.32769	0.16642
36.33529	0.16564
36.34288	0.16487
36.35047	0.1641
36.35807	0.16333
36.36566	0.16257
36.37326	0.16181
36.38085	0.16105
36.38845	0.1603
36.39604	0.15955
36.40363	0.15881
36.41123	0.15807
36.41882	0.15733
36.42642	0.15659
36.43401	0.15586
36.4416	0.15513
36.4492	0.15441
36.45679	0.15368
36.46439	0.15297
36.47198	0.15225
36.47958	0.15154
36.48717	0.15083
36.49476	0.15012
36.50236	0.14942
36.50995	0.14872
36.51755	0.14803
36.52514	0.14733
36.53273	0.14664
36.54033	0.14596
36.54792	0.14527
36.55552	0.14459
36.56311	0.14392
36.5707	0.14324
36.5783	0.14257
36.58589	0.1419
36.59349	0.14124
36.60108	0.14058
36.60868	0.13992
36.61627	0.13926
36.62386	0.13861
36.63146	0.13796
36.63905	0.13731
36.64665	0.13667
36.65424	0.13603
36.66183	0.13539
36.66943	0.13476
36.67702	0.13412
36.68462	0.13349
36.69221	0.13287
36.69981	0.13225
36.7074	0.13162
36.71499	0.13101
36.72259	0.13039
36.73018	0.12978
36.73778	0.12917
36.74537	0.12856
36.75296	0.12796
36.76056	0.12736
36.76815	0.12676
36.77575	0.12616
36.78334	0.12557
36.79094	0.12498
36.79853	0.12439
36.80612	0.12381
36.81372	0.12323
36.82131	0.12265
36.82891	0.12207
36.8365	0.1215
36.84409	0.12093
36.85169	0.12036
36.85928	0.11979
36.86688	0.11923
36.87447	0.11867
36.88207	0.11811
36.88966	0.11755
36.89725	0.117
36.90485	0.11645
36.91244	0.1159
36.92004	0.11535
36.92763	0.11481
36.93522	0.11427
36.94282	0.11373
36.95041	0.11319
36.95801	0.11266
36.9656	0.11213
36.9732	0.1116
36.98079	0.11107
36.98838	0.11055
36.99598	0.11003
37.00357	0.10951
37.01117	0.10899
37.01876	0.10848
37.02635	0.10797
37.03395	0.10746
37.04154	0.10695
37.04914	0.10644
37.05673	0.10594
37.06432	0.10544
37.07192	0.10494
37.07951	0.10445
37.08711	0.10395
37.0947	0.10346
37.1023	0.10297
37.10989	0.10249
37.11748	0.102
37.12508	0.10152
37.13267	0.10104
37.14027	0.10056
37.14786	0.10008
37.15545	0.09961
37.16305	0.09914
37.17064	0.09867
37.17824	0.0982
37.18583	0.09774
37.19343	0.09728
37.20102	0.09681
37.20861	0.09636
37.21621	0.0959
37.2238	0.09544
37.2314	0.09499
37.23899	0.09454
37.24658	0.09409
37.25418	0.09365
37.26177	0.0932
37.26937	0.09276
37.27696	0.09232
37.28456	0.09188
37.29215	0.09145
37.29974	0.09101
37.30734	0.09058
37.31493	0.09015
37.32253	0.08972
37.33012	0.0893
37.33771	0.08887
37.34531	0.08845
37.3529	0.08803
37.3605	0.08761
37.36809	0.08719
37.37569	0.08678
37.38328	0.08637
37.39087	0.08595
37.39847	0.08555
37.40606	0.08514
37.41366	0.08473
37.42125	0.08433
37.42884	0.08393
37.43644	0.08353
37.44403	0.08313
37.45163	0.08273
37.45922	0.08234
37.46681	0.08195
37.47441	0.08156
37.482	0.08117
37.4896	0.08078
37.49719	0.08039
37.50479	0.08001
37.51238	0.07963
37.51997	0.07925
37.52757	0.07887
37.53516	0.07849
37.54276	0.07812
37.55035	0.07775
37.55794	0.07737
37.56554	0.077
37.57313	0.07664
37.58073	0.07627
37.58832	0.0759
37.59592	0.07554
37.60351	0.07518
37.6111	0.07482
37.6187	0.07446
37.62629	0.0741
37.63389	0.07375
37.64148	0.0734
37.64907	0.07305
37.65667	0.07269
37.66426	0.07235
37.67186	0.072
37.67945	0.07165
37.68705	0.07131
37.69464	0.07097
37.70223	0.07063
37.70983	0.07029
37.71742	0.06995
37.72502	0.06962
37.73261	0.06928
37.7402	0.06895
37.7478	0.06862
37.75539	0.06829
37.76299	0.06796
37.77058	0.06763
37.77818	0.06731
37.78577	0.06698
37.79336	0.06666
37.80096	0.06634
37.80855	0.06602
37.81615	0.0657
37.82374	0.06539
37.83133	0.06507
37.83893	0.06476
37.84652	0.06444
37.85412	0.06413
37.86171	0.06382
37.8693	0.06352
37.8769	0.06321
37.88449	0.0629
37.89209	0.0626
37.89968	0.0623
37.90728	0.062
37.91487	0.0617
37.92246	0.0614
37.93006	0.0611
37.93765	0.06081
37.94525	0.06051
37.95284	0.06022
37.96043	0.05993
37.96803	0.05964
37.97562	0.05935
37.98322	0.05906
37.99081	0.05878
37.99841	0.05849
38.006	0.05821
38.01359	0.05793
38.02119	0.05764
38.02878	0.05737
38.03638	0.05709
38.04397	0.05681
38.05156	0.05653
38.05916	0.05626
38.06675	0.05599
38.07435	0.05571
38.08194	0.05544
38.08954	0.05517
38.09713	0.0549
38.10472	0.05464
38.11232	0.05437
38.11991	0.05411
38.12751	0.05384
38.1351	0.05358
38.14269	0.05332
38.15029	0.05306
38.15788	0.0528
38.16548	0.05254
38.17307	0.05229
38.18067	0.05203
38.18826	0.05178
38.19585	0.05153
38.20345	0.05127
38.21104	0.05102
38.21864	0.05077
38.22623	0.05053
38.23382	0.05028
38.24142	0.05003
38.24901	0.04979
38.25661	0.04954
38.2642	0.0493
38.2718	0.04906
38.27939	0.04882
38.28698	0.04858
38.29458	0.04834
38.30217	0.0481
38.30977	0.04787
38.31736	0.04763
38.32495	0.0474
38.33255	0.04717
38.34014	0.04693
38.34774	0.0467
38.35533	0.04647
38.36292	0.04624
38.37052	0.04602
38.37811	0.04579
38.38571	0.04557
38.3933	0.04534
38.4009	0.04512
38.40849	0.04489
38.41608	0.04467
38.42368	0.04445
38.43127	0.04423
38.43887	0.04402
38.44646	0.0438
38.45405	0.04358
38.46165	0.04337
38.46924	0.04315
38.47684	0.04294
38.48443	0.04273
38.49203	0.04251
38.49962	0.0423
38.50721	0.04209
38.51481	0.04189
38.5224	0.04168
38.53	0.04147
38.53759	0.04127
38.54518	0.04106
38.55278	0.04086
38.56037	0.04065
38.56797	0.04045
38.57556	0.04025
38.58316	0.04005
38.59075	0.03985
38.59834	0.03965
38.60594	0.03945
38.61353	0.03926
38.62113	0.03906
38.62872	0.03887
38.63631	0.03867
38.64391	0.03848
38.6515	0.03829
38.6591	0.0381
38.66669	0.03791
38.67429	0.03772
38.68188	0.03753
38.68947	0.03734
38.69707	0.03715
38.70466	0.03697
38.71226	0.03678
38.71985	0.0366
38.72744	0.03642
38.73504	0.03623
38.74263	0.03605
38.75023	0.03587
38.75782	0.03569
38.76541	0.03551
38.77301	0.03533
38.7806	0.03515
38.7882	0.03498
38.79579	0.0348
38.80339	0.03463
38.81098	0.03445
38.81857	0.03428
38.82617	0.0341
38.83376	0.03393
38.84136	0.03376
38.84895	0.03359
38.85654	0.03342
38.86414	0.03325
38.87173	0.03308
38.87933	0.03292
38.88692	0.03275
38.89452	0.03258
38.90211	0.03242
38.9097	0.03225
38.9173	0.03209
38.92489	0.03193
38.93249	0.03177
38.94008	0.0316
38.94767	0.03144
38.95527	0.03128
38.96286	0.03112
38.97046	0.03097
38.97805	0.03081
38.98565	0.03065
38.99324	0.03049
39.00083	0.03034
39.00843	0.03018
39.01602	0.03003
39.02362	0.02988
39.03121	0.02972
39.0388	0.02957
39.0464	0.02942
39.05399	0.02927
39.06159	0.02912
39.06918	0.02897
39.07678	0.02882
39.08437	0.02867
39.09196	0.02853
39.09956	0.02838
39.10715	0.02823
39.11475	0.02809
39.12234	0.02794
39.12993	0.0278
39.13753	0.02766
39.14512	0.02751
39.15272	0.02737
39.16031	0.02723
39.1679	0.02709
39.1755	0.02695
39.18309	0.02681
39.19069	0.02667
39.19828	0.02653
39.20588	0.0264
39.21347	0.02626
39.22106	0.02612
39.22866	0.02599
39.23625	0.02585
39.24385	0.02572
39.25144	0.02558
39.25903	0.02545
39.26663	0.02532
39.27422	0.02519
39.28182	0.02505
39.28941	0.02492
39.29701	0.02479
39.3046	0.02466
39.31219	0.02454
39.31979	0.02441
39.32738	0.02428
39.33498	0.02415
39.34257	0.02403
39.35016	0.0239
39.35776	0.02377
39.36535	0.02365
39.37295	0.02352
39.38054	0.0234
39.38814	0.02328
39.39573	0.02316
39.40332	0.02303
39.41092	0.02291
39.41851	0.02279
39.42611	0.02267
39.4337	0.02255
39.44129	0.02243
39.44889	0.02231
39.45648	0.02219
39.46408	0.02208
39.47167	0.02196
39.47927	0.02184
39.48686	0.02173
39.49445	0.02161
39.50205	0.0215
39.50964	0.02138
39.51724	0.02127
39.52483	0.02115
39.53242	0.02104
39.54002	0.02093
39.54761	0.02082
39.55521	0.02071
39.5628	0.02059
39.5704	0.02048
39.57799	0.02037
39.58558	0.02027
39.59318	0.02016
39.60077	0.02005
39.60837	0.01994
39.61596	0.01983
39.62355	0.01973
39.63115	0.01962
39.63874	0.01951
39.64634	0.01941
39.65393	0.0193
39.66152	0.0192
39.66912	0.01909
39.67671	0.01899
39.68431	0.01889
39.6919	0.01879
39.6995	0.01868
39.70709	0.01858
39.71468	0.01848
39.72228	0.01838
39.72987	0.01828
39.73747	0.01818
39.74506	0.01808
39.75265	0.01798
39.76025	0.01788
39.76784	0.01779
39.77544	0.01769
39.78303	0.01759
39.79063	0.01749
39.79822	0.0174
39.80581	0.0173
39.81341	0.01721
39.821	0.01711
39.8286	0.01702
39.83619	0.01692
39.84378	0.01683
39.85138	0.01674
39.85897	0.01664
39.86657	0.01655
39.87416	0.01646
39.88176	0.01637
39.88935	0.01628
39.89694	0.01619
39.90454	0.0161
39.91213	0.01601
39.91973	0.01592
39.92732	0.01583
39.93491	0.01574
39.94251	0.01565
39.9501	0.01556
39.9577	0.01548
39.96529	0.01539
39.97289	0.0153
39.98048	0.01522
39.98807	0.01513
39.99567	0.01505
40.00326	0.01496
40.01086	0.01488
40.01845	0.01479
40.02604	0.01471
40.03364	0.01462
40.04123	0.01454
40.04883	0.01446
40.05642	0.01438
40.06401	0.01429
40.07161	0.01421
40.0792	0.01413
40.0868	0.01405
40.09439	0.01397
40.10199	0.01389
40.10958	0.01381
40.11717	0.01373
40.12477	0.01365
40.13236	0.01357
40.13996	0.01349
40.14755	0.01342
40.15514	0.01334
40.16274	0.01326
40.17033	0.01319
40.17793	0.01311
40.18552	0.01303
40.19312	0.01296
40.20071	0.01288
40.2083	0.01281
40.2159	0.01273
40.22349	0.01266
40.23109	0.01258
40.23868	0.01251
40.24627	0.01244
40.25387	0.01236
40.26146	0.01229
40.26906	0.01222
40.27665	0.01215
40.28425	0.01207
40.29184	0.012
40.29943	0.01193
40.30703	0.01186
40.31462	0.01179
40.32222	0.01172
40.32981	0.01165
40.3374	0.01158
40.345	0.01151
40.35259	0.01144
40.36019	0.01137
40.36778	0.01131
40.37538	0.01124
40.38297	0.01117
40.39056	0.0111
40.39816	0.01104
40.40575	0.01097
40.41335	0.0109
40.42094	0.01084
40.42853	0.01077
40.43613	0.01071
40.44372	0.01064
40.45132	0.01058
40.45891	0.01051
40.46651	0.01045
40.4741	0.01038
40.48169	0.01032
40.48929	0.01026
40.49688	0.01019
40.50448	0.01013
40.51207	0.01007
40.51966	0.01
40.52726	0.00994
40.53485	0.00988
40.54245	0.00982
40.55004	0.00976
40.55763	0.0097
40.56523	0.00964
40.57282	0.00958
40.58042	0.00952
40.58801	0.00946
40.59561	0.0094
40.6032	0.00934
40.61079	0.00928
40.61839	0.00922
40.62598	0.00916
40.63358	0.0091
40.64117	0.00905
40.64876	0.00899
40.65636	0.00893
40.66395	0.00887
40.67155	0.00882
40.67914	0.00876
40.68674	0.0087
40.69433	0.00865
40.70192	0.00859
40.70952	0.00854
40.71711	0.00848
40.72471	0.00843
40.7323	0.00837
40.73989	0.00832
40.74749	0.00826
40.75508	0.00821
40.76268	0.00816
40.77027	0.0081
40.77787	0.00805
40.78546	0.008
40.79305	0.00794
40.80065	0.00789
40.80824	0.00784
40.81584	0.00779
40.82343	0.00773
40.83102	0.00768
40.83862	0.00763
40.84621	0.00758
40.85381	0.00753
40.8614	0.00748
40.869	0.00743
40.87659	0.00738
40.88418	0.00733
40.89178	0.00728
40.89937	0.00723
40.90697	0.00718
40.91456	0.00713
40.92215	0.00708
40.92975	0.00703
40.93734	0.00698
40.94494	0.00694
40.95253	0.00689
40.96012	0.00684
40.96772	0.00679
40.97531	0.00675
40.98291	0.0067
40.9905	0.00665
40.9981	0.00661
41.00569	0.00656
41.01328	0.00651
41.02088	0.00647
41.02847	0.00642
41.03607	0.00638
41.04366	0.00633
41.05125	0.00629
41.05885	0.00624
41.06644	0.0062
41.07404	0.00615
41.08163	0.00611
41.08923	0.00606
41.09682	0.00602
41.10441	0.00597
41.11201	0.00593
41.1196	0.00589
41.1272	0.00584
41.13479	0.0058
41.14238	0.00576
41.14998	0.00572
41.15757	0.00567
41.16517	0.00563
41.17276	0.00559
41.18036	0.00555
41.18795	0.00551
41.19554	0.00546
41.20314	0.00542
41.21073	0.00538
41.21833	0.00534
41.22592	0.0053
41.23351	0.00526
41.24111	0.00522
41.2487	0.00518
41.2563	0.00514
41.26389	0.0051
41.27149	0.00506
41.27908	0.00502
41.28667	0.00498
41.29427	0.00494
41.30186	0.0049
41.30946	0.00487
41.31705	0.00483
41.32464	0.00479
41.33224	0.00475
41.33983	0.00471
41.34743	0.00468
41.35502	0.00464
41.36261	0.0046
41.37021	0.00456
41.3778	0.00453
41.3854	0.00449
41.39299	0.00445
41.40059	0.00442
41.40818	0.00438
41.41577	0.00434
41.42337	0.00431
41.43096	0.00427
41.43856	0.00424
41.44615	0.0042
41.45374	0.00416
41.46134	0.00413
41.46893	0.00409
41.47653	0.00406
41.48412	0.00402
41.49172	0.00399
41.49931	0.00395
41.5069	0.00392
41.5145	0.00389
41.52209	0.00385
41.52969	0.00382
41.53728	0.00378
41.54487	0.00375
41.55247	0.00372
41.56006	0.00368
41.56766	0.00365
41.57525	0.00362
41.58285	0.00359
41.59044	0.00355
41.59803	0.00352
41.60563	0.00349
41.61322	0.00346
41.62082	0.00342
41.62841	0.00339
41.636	0.00336
41.6436	0.00333
41.65119	0.0033
41.65879	0.00327
41.66638	0.00323
41.67398	0.0032
41.68157	0.00317
41.68916	0.00314
41.69676	0.00311
41.70435	0.00308
41.71195	0.00305
41.71954	0.00302
41.72713	0.00299
41.73473	0.00296
41.74232	0.00293
41.74992	0.0029
41.75751	0.00287
41.76511	0.00284
41.7727	0.00281
41.78029	0.00278
41.78789	0.00276
41.79548	0.00273
41.80308	0.0027
41.81067	0.00267
41.81826	0.00264
41.82586	0.00261
41.83345	0.00258
41.84105	0.00256
41.84864	0.00253
41.85623	0.0025
41.86383	0.00247