0.03467	5800.959	2595.19	39.4221	11695.2
0.17333	989.422	2030.77	34.6144	13682.7
0.312	263.461	1641.35	18.2682	13334.6
0.45067	115.384	1705.77	4.80669	13151
0.58933	44.2298	1564.42	4.80669	12806.7
0.728	23.0759	1645.19	0.96054	12602.9
0.86667	8.65285	1851.92	1.92208	12379.8
1.00533	8.65285	1809.62	0.96054	12606.7
1.144	5.76823	1813.46	0	12341.3
1.28267	2.88362	1926.92	0	12154.8
1.42133	0.96054	1900.96	0.96054	11728.8
1.56	3.84515	1882.69	0.96054	11364.4
1.69867	6.72977	1915.38	0.96054	11101.9
1.83733	0	1927.88	0.96054	11186.5
1.976	4.80669	1997.12	0.96054	11098.1
2.11467	1.92208	1950.96	0.96054	10724
2.25333	2.88362	2031.73	1.92208	10464.4
2.392	2.88362	2098.08	2.88362	10539.4
2.53067	5.76823	2122.12	0	10284.6
2.66933	4.80669	2320.19	0	10248.1
2.808	6.72977	2315.38	0	10373.1
2.94667	6.72977	2325.96	0.96054	9911.54
3.08533	1.92208	2489.42	0	9814.42
3.224	3.84515	2433.65	1.92208	9630.77
3.36267	7.69131	2463.46	3.84515	9354.81
3.50133	4.80669	2398.08	29.8067	8946.15
3.64	3.84515	2501.92	124.037	8578.85
3.77867	5.76823	2836.54	199.999	8093.27
3.91733	14.4221	3137.5	314.422	7565.38
4.056	15.3836	3384.62	428.845	6868.27
4.19467	16.3452	3797.12	473.076	6494.23
4.33333	20.1913	4154.81	500.961	6152.88
4.472	19.2298	4332.69	561.537	5815.38
4.61067	15.3836	4800.96	536.537	5718.27
4.74933	22.1144	5129.81	542.307	5283.65
4.888	34.6144	5353.85	574.037	5275
5.02667	19.2298	5620.19	576.922	5049.04
5.16533	35.5759	5848.08	565.384	4857.69
5.304	24.999	5994.23	552.884	4576.92
5.44267	34.6144	6179.81	571.153	4392.31
5.58133	26.9221	6181.73	545.191	4430.77
5.72	29.8067	6350.96	523.076	4436.54
5.85867	26.9221	6528.85	584.614	4463.46
5.99733	27.8836	6793.27	511.537	4460.58
6.136	21.1528	6876.92	545.191	4417.31
6.27467	36.5375	6850.96	586.537	4526.92
6.41333	32.6913	6872.12	565.384	4550
6.552	23.0759	6968.27	560.576	4617.31
6.69067	30.7682	6995.19	572.114	4676.92
6.82933	32.6913	6999.04	542.307	4595.19
6.968	33.6528	7086.54	586.537	4758.65
7.10667	33.6528	6975.96	620.191	4848.08
7.24533	30.7682	7132.69	609.614	4154.81
7.384	33.6528	6681.73	526.922	4266.35
7.52267	22.1144	6748.08	574.037	4371.15
7.66133	28.8452	6601.92	554.807	4519.23
7.8	29.8067	6756.73	524.037	4524.04
7.93867	28.8452	6769.23	619.23	4565.38
8.07733	27.8836	6773.08	640.384	4675.96
8.216	35.5759	6927.88	544.23	4300.96
8.35467	24.999	6512.5	548.076	4261.54
8.49333	25.9605	6640.38	561.537	4433.65
8.632	26.9221	6490.38	526.922	4324.04
8.77067	31.7298	6785.58	588.461	4392.31
8.90933	43.2682	6734.62	592.307	4516.35
9.048	68.2682	6791.35	567.307	4575
9.18667	150.961	6864.42	580.768	4821.15
9.32533	325.961	6733.65	612.499	4734.62
9.464	649.999	6720.19	570.191	4696.15
9.60267	1008.649	6641.35	538.461	4787.5
9.74133	1255.769	6393.27	495.191	4675.96
9.88	1367.309	6474.04	520.191	4850.96
10.0187	1357.689	6312.5	485.576	4862.5
10.1573	1227.879	6463.46	491.345	5025.96
10.296	988.461	6273.08	527.884	5126.92
10.4347	724.999	6298.08	549.999	4873.08
10.5733	486.537	6301.92	540.384	4736.54
10.712	324.037	6462.5	559.614	4861.54
10.8507	201.922	6356.73	586.537	4766.35
10.9893	127.884	6464.42	589.422	4832.69
11.128	91.3452	6497.12	577.884	4496.15
11.2667	57.6913	6365.38	563.461	4338.46
11.4053	42.3067	6429.81	532.691	4174.04
11.544	38.4605	6326.92	486.537	4279.81
11.6827	35.5759	6220.19	549.037	4214.42
11.8213	35.5759	6353.85	519.23	4274.04
11.96	35.5759	6419.23	573.076	4244.23
12.0987	38.4605	6613.46	556.73	4244.23
12.2373	34.6144	6775	565.384	4301.92
12.376	29.8067	6604.81	553.845	4302.88
12.5147	35.5759	6615.38	524.999	4285.58
12.6533	34.6144	6660.58	587.499	4271.15
12.792	27.8836	6597.12	565.384	4347.12
12.9307	32.6913	6668.27	583.653	4429.81
13.0693	28.8452	6716.35	545.191	4336.54
13.208	34.6144	6724.04	574.999	4156.73
13.3467	35.5759	6926.92	553.845	4379.81
13.4853	25.9605	6956.73	605.768	4498.08
13.624	22.1144	6824.04	542.307	4411.54
13.7627	33.6528	6825	547.114	4324.04
13.9013	27.8836	6844.23	597.114	4483.65
14.04	27.8836	6925.96	564.422	4574.04
14.1787	37.499	6985.58	571.153	4491.35
14.3173	28.8452	6641.35	550.961	4253.85
14.456	38.4605	6664.42	560.576	4342.31
14.5947	35.5759	6888.46	542.307	4335.58
14.7333	20.1913	6669.23	582.691	4321.15
14.872	32.6913	6729.81	570.191	4355.77
15.0107	27.8836	6808.65	545.191	4581.73
15.1493	36.5375	6718.27	602.884	4306.73
15.288	30.7682	6741.35	570.191	4287.5
15.4267	23.0759	6599.04	547.114	4252.88
15.5653	25.9605	6587.5	527.884	4321.15
15.704	31.7298	6787.5	550.961	4232.69
15.8427	29.8067	6554.81	537.499	4368.27
15.9813	27.8836	6735.58	572.114	4299.04
16.12	36.5375	6512.5	592.307	4343.27
16.2587	34.6144	6749.04	571.153	4438.46
16.3973	25.9605	6792.31	566.345	4232.69
16.536	25.9605	6785.58	574.037	4245.19
16.6747	28.8452	6788.46	561.537	4231.73
16.8133	29.8067	6720.19	569.23	4303.85
16.952	33.6528	6826.92	602.884	4326.92
17.0907	21.1528	6895.19	578.845	4475.96
17.2293	34.6144	6872.12	577.884	4715.38
17.368	27.8836	6894.23	599.037	4685.58
17.5067	25.9605	6629.81	527.884	4642.31
17.6453	24.999	6754.81	471.153	4857.69
17.784	27.8836	6403.85	428.845	5175.96
17.9227	18.2682	6056.73	340.384	5191.35
18.0613	20.1913	5632.69	324.037	5484.62
18.2	20.1913	5208.65	247.114	5818.27
18.3387	14.4221	4792.31	199.999	6196.15
18.4773	6.72977	4450.96	161.537	6541.35
18.616	18.2682	4100.96	160.576	6804.81
18.7547	13.4605	4095.19	120.191	6818.27
18.8933	10.5759	3907.69	174.037	7022.12
19.032	12.499	4042.31	164.422	7257.69
19.1707	13.4605	3999.04	219.23	7423.08
19.3093	26.9221	4266.35	292.307	6812.5
19.448	17.3067	4125.96	327.884	6469.23
19.5867	14.4221	4530.77	388.461	6076.92
19.7253	17.3067	4781.73	434.614	5940.38
19.864	20.1913	4896.15	479.807	5769.23
20.0027	17.3067	5158.65	533.653	5546.15
20.1413	27.8836	5466.35	531.73	5260.58
20.28	30.7682	5684.62	528.845	5160.58
20.4187	31.7298	5984.62	562.499	5065.38
20.5573	28.8452	6085.58	603.845	4844.23
20.696	33.6528	6285.58	591.345	4774.04
20.8347	19.2298	6431.73	543.268	4676.92
20.9733	26.9221	6408.65	541.345	4611.54
21.112	20.1913	6721.15	584.614	4557.69
21.2507	38.4605	6760.58	540.384	4518.27
21.3893	24.0375	6892.31	573.076	4599.04
21.528	29.8067	6985.58	567.307	4530.77
21.6667	29.8067	6959.62	554.807	4525.96
21.8053	36.5375	7141.35	597.114	4543.27
21.944	24.999	7143.27	573.076	4434.62
22.0827	28.8452	7108.65	583.653	4480.77
22.2213	22.1144	7187.5	582.691	4610.58
22.36	25.9605	7177.88	534.614	4475.96
22.4987	16.3452	7050.96	564.422	4360.58
22.6373	29.8067	6988.46	588.461	4508.65
22.776	28.8452	6942.31	566.345	4475.96
22.9147	19.2298	7218.27	568.268	4440.38
23.0533	28.8452	7216.35	588.461	4511.54
23.192	28.8452	7058.65	547.114	4483.65
23.3307	24.0375	7005.77	593.268	4468.27
23.4693	29.8067	6933.65	611.537	4432.69
23.608	31.7298	6904.81	581.73	4401.92
23.7467	27.8836	6986.54	559.614	4291.35
23.8853	19.2298	6925	596.153	4545.19
24.024	25.9605	6879.81	594.23	4522.12
24.1627	34.6144	7084.62	600.961	4537.5
24.3013	30.7682	6849.04	583.653	4405.77
24.44	23.0759	6990.38	584.614	4455.77
24.5787	23.0759	6983.65	577.884	4344.23
24.7173	24.0375	6864.42	537.499	4510.58
24.856	31.7298	6969.23	560.576	4325.96
24.9947	29.8067	6756.73	621.153	4325.96
25.1333	29.8067	6625.96	582.691	4397.12
25.272	29.8067	6493.27	574.037	4325
25.4107	32.6913	6897.12	553.845	4283.65
25.5493	32.6913	6702.88	542.307	4304.81
25.688	25.9605	6714.42	550.961	4288.46
25.8267	28.8452	6725.96	537.499	4322.12
25.9653	25.9605	6887.5	571.153	4234.62
26.104	29.8067	6804.81	576.922	4222.12
26.2427	34.6144	6886.54	555.768	4268.27
26.3813	21.1528	6789.42	588.461	4400
26.52	39.4221	6745.19	542.307	4374.04
26.6587	27.8836	6672.12	583.653	4311.54
26.7973	24.0375	6775	569.23	4313.46
26.936	21.1528	6805.77	518.268	4393.27
27.0747	31.7298	6769.23	545.191	4463.46
27.2133	24.0375	6859.62	548.076	4268.27
27.352	29.8067	6792.31	582.691	4262.5
27.4907	23.0759	6711.54	554.807	4315.38
27.6293	27.8836	6781.73	571.153	4268.27
27.768	31.7298	6768.27	543.268	4425
27.9067	31.7298	6790.38	603.845	4426.92
28.0453	30.7682	6701.92	603.845	4267.31
28.184	19.2298	6808.65	532.691	4185.58
28.3227	16.3452	6800	563.461	4367.31
28.4613	30.7682	6796.15	572.114	4260.58
28.6	29.8067	6827.88	555.768	4268.27
28.7387	26.9221	6800.96	565.384	4298.08
28.8773	25.9605	6860.58	603.845	4402.88
29.016	36.5375	6783.65	618.268	4215.38
29.1547	32.6913	6902.88	533.653	4200.96
29.2933	27.8836	6824.04	535.576	4418.27
29.432	25.9605	7003.85	548.076	4293.27
29.5707	27.8836	6864.42	565.384	4148.08
29.7093	28.8452	6770.19	562.499	4160.58
29.848	28.8452	6775.96	580.768	4246.15
29.9867	24.999	6589.42	592.307	4350.96
30.1253	19.2298	6915.38	564.422	4196.15
30.264	22.1144	6780.77	556.73	4188.46
30.4027	31.7298	6696.15	519.23	4123.08
30.5413	24.0375	6731.73	577.884	4375.96
30.68	33.6528	6836.54	549.999	4222.12
30.8187	29.8067	6691.35	579.807	4148.08
30.9573	16.3452	6826.92	586.537	4329.81
31.096	31.7298	6912.5	587.499	4275.96
31.2347	26.9221	6722.12	561.537	4155.77
31.3733	32.6913	7013.46	559.614	4226.92
31.512	24.999	6704.81	571.153	4304.81
31.6507	22.1144	6708.65	610.576	4205.77
31.7893	31.7298	6792.31	527.884	4329.81
31.928	25.9605	6808.65	532.691	4261.54
32.0667	21.1528	6779.81	548.076	4263.46
32.2053	13.4605	6699.04	570.191	4136.54
32.344	26.9221	6804.81	542.307	4140.38
32.4827	26.9221	6640.38	547.114	4199.04
32.6213	25.9605	6847.12	574.999	4141.35
32.76	30.7682	6718.27	573.076	4279.81
32.8987	32.6913	6698.08	534.614	4184.62
33.0373	25.9605	6705.77	555.768	4269.23
33.176	16.3452	6769.23	566.345	4190.38
33.3147	31.7298	6712.5	554.807	4294.23
33.4533	28.8452	6799.04	591.345	4165.38
33.592	23.0759	6732.69	594.23	4197.12
33.7307	38.4605	6747.12	549.037	4313.46
33.8693	23.0759	6792.31	590.384	4081.73
34.008	23.0759	6730.77	549.999	4221.15
34.1467	31.7298	6737.5	544.23	4235.58
34.2853	27.8836	6886.54	573.076	4026.92
34.424	38.4605	6746.15	590.384	4073.08
34.5627	25.9605	6736.54	540.384	4159.62
34.7013	28.8452	6725.96	547.114	4097.12
34.84	33.6528	6797.12	552.884	3924.04
34.9787	36.5375	6795.19	587.499	4057.69
35.1173	28.8452	6753.85	553.845	4047.12
35.256	31.7298	6742.31	572.114	4032.69
35.3947	23.0759	6702.88	546.153	4185.58
35.5333	29.8067	6650	572.114	4070.19
35.672	29.8067	6870.19	563.461	3946.15
35.8107	31.7298	6746.15	519.23	4019.23
35.9493	35.5759	6717.31	535.576	4058.65
36.088	29.8067	6809.62	549.999	4003.85
36.2267	24.999	6779.81	509.614	3925.96
36.3653	32.6913	6927.88	521.153	4018.27
36.504	32.6913	7008.65	551.922	3842.31
36.6427	28.8452	6868.27	537.499	3842.31
36.7813	30.7682	7002.88	529.807	4015.38
36.92	27.8836	6827.88	573.076	3922.12
37.0587	29.8067	6800	551.922	3849.04
37.1973	36.5375	6811.54	531.73	3796.15
37.336	23.0759	6730.77	574.037	3825.96
37.4747	22.1144	6765.38	547.114	3942.31
37.6133	32.6913	6912.5	584.614	3859.62
37.752	39.4221	6783.65	541.345	3816.35
37.8907	21.1528	6850.96	542.307	3785.58
38.0293	32.6913	6871.15	554.807	3922.12
38.168	27.8836	6680.77	519.23	3808.65
38.3067	24.999	6813.46	550.961	3828.85
38.4453	34.6144	6761.54	520.191	3895.19
38.584	27.8836	6935.58	537.499	3886.54
38.7227	34.6144	6750	574.999	3846.15
38.8613	39.4221	6778.85	551.922	3864.42
39	33.6528	6850.96	567.307	3928.85
39.1387	34.6144	6960.58	497.114	3975
39.2773	36.5375	6728.85	567.307	3835.58
39.416	34.6144	6757.69	533.653	3758.65
39.5547	35.5759	6765.38	526.922	3844.23
39.6933	26.9221	6712.5	529.807	3814.42
39.832	27.8836	6873.08	529.807	3980.77
39.9707	50.9605	6861.54	534.614	3871.15
40.1093	43.2682	6663.46	553.845	3875
40.248	49.999	6753.85	558.653	3926.92
40.3867	55.7682	6655.77	545.191	3936.54
40.5253	54.8067	6746.15	588.461	3954.81
40.664	49.999	6917.31	549.037	3851.92
40.8027	65.3836	6775.96	514.422	3824.04
40.9413	68.2682	6783.65	553.845	3924.04
41.08	75.9605	6681.73	526.922	3972.12
41.2187	64.4221	6647.12	467.307	3997.12
41.3573	80.7682	6414.42	443.268	4176.92
41.496	102.884	6300	444.23	4320.19
41.6347	89.4221	5987.5	426.922	4462.5
41.7733	112.499	5708.65	299.037	4834.62
41.912	94.2298	5231.73	248.076	5064.42
42.0507	102.884	4954.81	189.422	5399.04
42.1893	106.73	4699.04	177.884	5488.46
42.328	130.768	4446.15	137.499	5897.12
42.4667	117.307	4095.19	88.4605	6094.23
42.6053	114.422	3944.23	90.3836	6357.69
42.744	104.807	3940.38	54.8067	6491.35
42.8827	118.268	3665.38	44.2298	6736.54
43.0213	92.3067	3501.92	36.5375	6860.58
43.16	122.114	3393.27	24.999	7010.58
43.2987	103.845	3426.92	14.4221	7009.62
43.4373	93.2682	3427.88	14.4221	7075.96
43.576	104.807	3316.35	8.65285	7134.62
43.7147	91.3452	3279.81	11.5375	7129.81
43.8533	116.345	3219.23	4.80669	7257.69
43.992	94.2298	3303.85	3.84515	7220.19
44.1307	101.922	3246.15	4.80669	7094.23
44.2693	116.345	3205.77	1.92208	7104.81
44.408	114.422	3325	2.88362	7133.65
44.5467	84.6144	3106.73	6.72977	7057.69
44.6853	93.2682	3116.35	3.84515	7054.81
44.824	91.3452	3252.88	0.96054	6974.04
44.9627	97.1144	3349.04	0	7140.38
45.1013	104.807	3306.73	0	7049.04
45.24	96.1528	3272.12	2.88362	7102.88
45.3787	123.076	3269.23	0.96054	7057.69
45.5173	109.614	3300.96	1.92208	6919.23
45.656	102.884	3330.77	0.96054	7001.92
45.7947	112.499	3207.69	1.92208	6974.04
45.9333	120.191	3310.58	1.92208	7054.81
46.072	115.384	3336.54	1.92208	6887.5
46.2107	101.922	3367.31	1.92208	6800
46.3493	109.614	3370.19	0.96054	6924.04
46.488	126.922	3348.08	0	6816.35
46.6267	122.114	3368.27	3.84515	6787.5
46.7653	125.961	3388.46	2.88362	6905.77
46.904	127.884	3451.92	0.96054	7001.92
47.0427	109.614	3402.88	2.88362	6725.96
47.1813	125.961	3355.77	0.96054	6743.27
47.32	121.153	3416.35	2.88362	6701.92
47.4587	120.191	3446.15	0	6910.58
47.5973	111.537	3493.27	0.96054	6707.69
47.736	105.768	3433.65	0	6595.19
47.8747	127.884	3425.96	1.92208	6620.19
48.0133	129.807	3536.54	0.96054	6742.31
48.152	109.614	3533.65	1.92208	6499.04
48.2907	119.23	3563.46	1.92208	6759.62
48.4293	102.884	3515.38	2.88362	6645.19
48.568	118.268	3444.23	0.96054	6604.81
48.7067	124.999	3473.08	1.92208	6417.31
48.8453	115.384	3550	2.88362	6595.19