0.06216	6.67009E21	1.54299E22	0.49333	3.99202E20
0.27528	4.03682E20	2.16963E22	1.18667	5.22437E19
0.4884	6.57205E19	2.20343E22	1.88	1.61583E19
0.70152	3.83574E19	2.20616E22	2.57334	5.02231E18
0.91464	2.12154E19	2.20788E22	3.26667	2.15904E18
1.12776	1.54181E19	2.20846E22	3.96	1.17286E18
1.34088	1.17726E19	2.20882E22	4.65334	6.77507E17
1.554	1.00067E19	2.209E22	5.34665	4.19322E17
1.76712	8.32793E18	2.20917E22	6.04	2.5E17
1.98024	6.99478E18	2.2093E22	6.73335	9.36624E17
2.19336	5.34792E18	2.20947E22	7.42665	8.84528E17
2.40648	3.05218E18	2.20969E22	8.12	2.39464E17
2.6196	2.92293E18	2.20971E22	8.81335	3.14367E17
2.83272	1.7074E18	2.20983E22	9.50665	3.19081E17
3.04584	3.10826E18	2.20969E22	10.2	1.57332E17
3.25896	2.50572E18	2.20975E22	10.89335	2.2971E17
3.47208	1.7519E18	2.20982E22	11.58665	7.3551E16
3.6852	6.87703E17	2.20993E22	12.28	7.50074E16
3.89832	1.70021E18	2.20983E22	12.97335	4.38853E17
4.11144	8.39271E17	2.20992E22	13.66665	2.14839E17
4.32456	6.61788E17	2.20993E22	14.36	3.55012E17
4.53768	1.63486E18	2.20984E22	15.05335	2.05875E17
4.7508	6.52414E17	2.20993E22	15.74665	3.47898E17
4.96392	3.20723E17	2.20997E22	16.44	6.0598E17
5.17704	1.60189E17	2.20998E22	17.13335	3.33156E17
5.39016	4.75986E17	2.20995E22	17.82665	3.32447E17
5.60328	3.16426E17	2.20997E22	18.52	2.59875E17
5.8164	1.58207E17	2.20998E22	19.21335	6.2728E17
6.02952	4.74677E17	2.20995E22	20	7.01489E17
6.24264	4.73168E17	2.20995E22	20.45068	6.68192E17
6.45576	4.76401E17	2.20995E22	20.90136	8.12103E17
6.66888	3.17001E17	2.20997E22	21.352	9.45775E17
6.882	4.78949E17	2.20995E22	21.80268	1.10352E18
7.09512	1.61579E17	2.20998E22	22.25335	7.27993E17
7.30824	1.62677E17	2.20998E22	22.704	1.14821E18
7.52136	0	2.21E22	23.15	7.07046E17
7.73448	1.64866E17	2.20998E22	23.66863	1.26539E18
7.9476	0	2.21E22	24.18721	1.08909E18
8.16072	0	2.21E22	24.70584	1.03569E18
8.37384	0	2.21E22	25.22447	7.49431E17
8.58696	3.41848E17	2.20997E22	25.74305	7.39871E17
8.80008	5.20101E17	2.20995E22	26.26168	9.3049E17
9.0132	3.4705E17	2.20997E22	26.78031	9.22868E17
9.22632	1.75638E17	2.20998E22	27.29889	1.05755E18
9.43944	3.49773E17	2.20997E22	27.81752	9.37381E17
9.65256	1.75744E17	2.20998E22	28.33615	7.89245E17
9.86568	3.52115E17	2.20996E22	28.85473	1.09968E18
10.0788	0	2.21E22	29.37336	8.66428E17
10.29192	1.776E17	2.20998E22	29.89199	1.0142E18
10.50504	1.7841E17	2.20998E22	30.41057	5.68598E17
10.71816	1.79627E17	2.20998E22	30.9292	7.40709E17
10.93128	1.78882E17	2.20998E22	31.44783	7.24834E17
11.1444	1.78931E17	2.20998E22	31.96641	9.19202E17
11.35752	3.57655E17	2.20996E22	32.48504	7.78396E17
11.57064	0	2.21E22	33.00367	7.86091E17
11.78376	1.79886E17	2.20998E22	33.52225	8.74281E17
11.99688	0	2.21E22	34.04088	8.20566E17
12.21	0	2.21E22	34.55951	7.76967E17
12.42312	3.60582E17	2.20996E22	35.07809	7.76539E17
12.63624	0	2.21E22	35.59672	7.18861E17
12.84936	0	2.21E22	36.11535	7.72325E17
13.06248	3.60152E17	2.20996E22	36.63393	8.93674E17
13.2756	1.80703E17	2.20998E22	37.15256	6.84682E17
13.48872	0	2.21E22	37.67119	9.35562E17
13.70184	1.80183E17	2.20998E22	38.18977	7.21828E17
13.91496	1.80733E17	2.20998E22	38.7084	1.33439E18
14.12808	0	2.21E22	39.22703	1.353E18
14.3412	1.80134E17	2.20998E22	39.74561	1.90422E18
14.55432	3.60933E17	2.20996E22	40.26424	3.42653E18
14.76744	3.62307E17	2.20996E22	40.78287	6.4562E18
14.98056	1.80696E17	2.20998E22	41.30145	1.02944E19
15.19368	0	2.21E22	41.82008	1.92168E19
15.4068	1.80851E17	2.20998E22	42.33882	2.90769E19
15.61992	1.82135E17	2.20998E22	42.85718	3.87782E19
15.83304	3.61672E17	2.20996E22	43.37592	4.7427E19
16.04616	5.43974E17	2.20995E22	43.89466	4.39407E19
16.25928	3.63407E17	2.20996E22	44.41302	4.16938E19
16.4724	5.42023E17	2.20995E22	44.93176	3.23643E19
16.68552	3.63239E17	2.20996E22	45.4505	2.5084E19
16.89864	5.3941E17	2.20995E22	45.96886	1.75572E19
17.11176	1.81543E18	2.20982E22	46.4876	1.05957E19
17.32488	3.63145E18	2.20964E22	47.00634	7.82747E18
17.538	1.45467E19	2.20855E22	47.5247	4.70678E18
17.75112	3.3594E19	2.20664E22	48.04	2.51441E18
17.96424	9.7773E19	2.20022E22	48.46997	2.04856E18
18.17736	1.97721E20	2.19023E22	48.89963	1.70323E18
18.39048	3.94259E20	2.17057E22	49.3296	1.4662E18
18.6036	6.7944E20	2.14206E22	49.75957	1.21638E18
18.81672	1.12891E21	2.09711E22	50.18923	1.14818E18
19.02984	1.68357E21	2.04164E22	50.6192	1.01317E18
19.24296	2.27496E21	1.9825E22	51.04917	9.13951E17
19.45608	2.93396E21	1.9166E22	51.47883	7.15882E17
19.6692	3.56091E21	1.85391E22	51.9088	8.51253E17
19.88	4.09377E21	1.80062E22	52.33877	1.09591E18
20.1104	4.5563E21	1.75437E22	52.76843	7.54148E17
20.3408	4.97553E21	1.71245E22	53.1984	7.09406E17
20.5712	5.29847E21	1.68015E22	53.62837	6.76974E17
20.8016	5.61291E21	1.64871E22	54.05803	7.15463E17
21.032	5.81737E21	1.62826E22	54.488	8.63558E17
21.2624	6.04073E21	1.60593E22	54.91797	1.02852E18
21.4928	6.20047E21	1.58995E22	55.34763	7.72656E17
21.7232	6.29108E21	1.58089E22	55.7776	7.60491E17
21.9536	6.37034E21	1.57297E22	56.20757	8.33557E17
22.184	6.41894E21	1.56811E22	56.63723	8.18927E17
22.4144	6.46092E21	1.56391E22	57.0672	8.12595E17
22.6448	6.50241E21	1.55976E22	57.49717	9.68075E17
22.8752	6.55296E21	1.5547E22	57.92683	7.89814E17
23.1056	6.58249E21	1.55175E22	58.3568	9.00689E17
23.336	6.58961E21	1.55104E22	58.78677	7.8769E17
23.5664	6.66891E21	1.54311E22	59.21643	1.01215E18
23.7968	6.73872E21	1.53613E22	59.6464	1.2111E18
24.0272	6.76996E21	1.533E22	60.07637	8.7076E17
24.2576	6.76994E21	1.53301E22	60.50603	6.23325E17
24.488	6.74001E21	1.536E22	60.936	8.25387E17
24.7184	6.80878E21	1.52912E22	61.36597	6.44272E17
24.9488	6.82178E21	1.52782E22	61.79563	1.02684E18
25.1792	6.81994E21	1.52801E22	62.2256	8.21922E17
25.4096	6.81662E21	1.52834E22	62.65557	8.01945E17
25.64	6.79706E21	1.53029E22	63.08523	7.6542E17
25.8704	6.7565E21	1.53435E22	63.5152	6.0343E17
26.1008	6.79533E21	1.53047E22	63.94517	7.65699E17
26.3312	6.85041E21	1.52496E22	64.37483	1.00708E18
26.5616	6.81233E21	1.52877E22	64.8048	6.45077E17
26.792	6.78601E21	1.5314E22	65.23477	8.34308E17
27.0224	6.85348E21	1.52465E22	65.66443	1.12295E18
27.2528	6.86882E21	1.52312E22	66.0944	5.98936E17
27.4832	6.85363E21	1.52464E22	66.52437	8.40708E17
27.7136	6.86912E21	1.52309E22	66.95403	6.62139E17
27.944	6.85643E21	1.52436E22	67.384	8.35242E17
28.1744	6.83653E21	1.52635E22	67.81397	9.20026E17
28.4048	6.87601E21	1.5224E22	68.24363	8.32434E17
28.6352	6.87492E21	1.52251E22	68.6736	5.73448E17
28.8656	6.80537E21	1.52946E22	69.10357	7.94722E17
29.096	6.82986E21	1.52701E22	69.53323	9.15007E17
29.3264	6.86161E21	1.52384E22	69.9632	6.72622E17
29.5568	6.83983E21	1.52602E22	70.39317	5.74714E17
29.7872	6.81664E21	1.52834E22	70.82283	6.10427E17
30.0176	6.78774E21	1.53123E22	71.2528	7.20757E17
30.248	6.79076E21	1.53092E22	71.68277	5.651E17
30.4784	6.82022E21	1.52798E22	72.11243	5.10605E17
30.7088	6.89246E21	1.52075E22	72.5424	5.91764E17
30.9392	6.90949E21	1.51905E22	72.97237	5.26061E17
31.1696	6.87321E21	1.52268E22	73.40203	6.08965E17
31.4	6.89074E21	1.52093E22	73.832	7.32798E17
31.6304	6.87564E21	1.52244E22	74.26197	8.14838E17
31.8608	6.79611E21	1.53039E22	74.69163	5.82241E17
32.0912	6.89824E21	1.52018E22	75.1216	7.52186E17
32.3216	6.79053E21	1.53095E22	75.55157	6.48342E17
32.552	6.77688E21	1.53231E22	75.98123	7.31796E17
32.7824	6.80221E21	1.52978E22	76.4112	7.66329E17
33.0128	6.77635E21	1.53236E22	76.84	1.5237E18
33.2432	6.84904E21	1.5251E22	77.29045	6.98324E17
33.4736	6.84931E21	1.52507E22	77.74123	9.0589E17
33.704	6.87172E21	1.52283E22	78.192	1.36903E18
33.9344	6.90381E21	1.51962E22	78.64245	6.21212E17
34.1648	6.89137E21	1.52086E22	79.09323	7.08353E17
34.3952	6.91403E21	1.5186E22	79.544	7.42801E17
34.6256	6.93965E21	1.51604E22	79.99445	4.87421E17
34.856	6.83197E21	1.5268E22	80.44523	8.09211E17
35.0864	6.84881E21	1.52512E22	80.896	7.95511E17
35.3168	6.8879E21	1.52121E22	81.34645	7.52257E17
35.5472	6.87946E21	1.52205E22	81.79723	9.0036E17
35.7776	6.82271E21	1.52773E22	82.248	7.78529E17
36.008	6.85955E21	1.52405E22	82.69845	7.22539E17
36.2384	6.84524E21	1.52548E22	83.14923	6.55184E17
36.4688	6.88351E21	1.52165E22	83.6	1.04775E18
36.6992	6.84967E21	1.52503E22	84.05045	7.16132E17
36.9296	6.80627E21	1.52937E22	84.50123	9.9755E17
37.16	6.89822E21	1.52018E22	84.952	9.25095E17
37.3904	6.89114E21	1.52089E22	85.40245	5.48197E17
37.6208	6.92636E21	1.51736E22	85.85323	8.15071E17
37.8512	6.92288E21	1.51771E22	86.304	8.45274E17
38.0816	6.90334E21	1.51967E22	86.75445	6.93577E17
38.312	6.87911E21	1.52209E22	87.20522	9.71046E17
38.5424	6.89447E21	1.52055E22	87.656	9.29536E17
38.7728	6.79335E21	1.53067E22	88.10645	5.75984E17
39.0032	6.82121E21	1.52788E22	88.55723	1.06054E18
39.2336	6.80848E21	1.52915E22	89.008	8.44594E17
39.464	6.84433E21	1.52557E22	89.45845	7.25209E17
39.6944	6.85681E21	1.52432E22	89.90923	6.9663E17
39.9248	6.88153E21	1.52185E22	90.36	8.27963E17
40.1552	6.88972E21	1.52103E22	90.81045	9.51005E17
40.3856	6.86346E21	1.52365E22	91.26123	7.72444E17
40.616	6.76514E21	1.53349E22	91.712	8.67815E17
40.8464	6.62782E21	1.54722E22	92.16245	1.22651E18
41.0768	6.43967E21	1.56603E22	92.61323	7.38487E17
41.3072	6.0809E21	1.60191E22	93.064	9.41668E17
41.5376	5.7282E21	1.63718E22	93.51445	8.10037E17
41.768	5.24185E21	1.68582E22	93.96523	7.49181E17
41.9984	4.69409E21	1.74059E22	94.416	9.31055E17
42.2288	4.09826E21	1.80017E22	94.86645	8.57631E17
42.4592	3.55243E21	1.85476E22	95.31723	8.67025E17
42.6896	3.03982E21	1.90602E22	95.768	9.812E17
42.92	2.60212E21	1.94979E22	96.21845	7.81178E17
43.1504	2.22174E21	1.98783E22	96.66923	7.36987E17
43.3808	1.91729E21	2.01827E22	97.12	7.42737E17
43.6112	1.78715E21	2.03129E22	97.57045	8.96632E17
43.8416	1.77575E21	2.03242E22	98.02123	7.94877E17
44.072	1.94562E21	2.01544E22	98.472	1.13996E18
44.3024	2.24845E21	1.98516E22	98.92245	6.7018E17
44.5328	2.65043E21	1.94496E22	99.37323	9.2302E17
44.7632	3.13496E21	1.8965E22	99.824	9.67438E17
44.9936	3.70713E21	1.83929E22	100.27445	8.73053E17
45.224	4.14568E21	1.79543E22	100.72523	8.85456E17
45.4544	4.67533E21	1.74247E22	101.176	7.84274E17
45.6848	5.05862E21	1.70414E22	101.62645	8.54737E17
45.9152	5.33894E21	1.67611E22	102.07723	6.4463E17
46.1456	5.66841E21	1.64316E22	102.528	7.19791E17
46.376	5.8513E21	1.62487E22	102.97845	6.31488E17
46.6064	6.00078E21	1.60992E22	103.42923	5.71719E17
46.8368	6.23387E21	1.58661E22	103.88	8.06751E17
47.0672	6.32401E21	1.5776E22	104.33045	8.22212E17
47.2976	6.43473E21	1.56653E22	104.78123	7.98347E17
47.528	6.55686E21	1.55431E22	105.232	8.50967E17
47.7584	6.52208E21	1.55779E22	105.68245	8.87107E17
47.9888	6.6451E21	1.54549E22	106.13323	7.89227E17
48.2192	6.58605E21	1.5514E22	106.584	7.88427E17
48.4496	6.58157E21	1.55184E22	107.03445	1.10102E18
48.68	6.68679E21	1.54132E22	107.48523	1.13932E18
48.9104	6.71383E21	1.53862E22	107.936	8.11389E17
49.1408	6.73244E21	1.53676E22	108.38645	8.95398E17
49.3712	6.7372E21	1.53628E22	108.83723	7.53357E17
49.6016	6.86901E21	1.5231E22	109.288	6.35153E17
49.832	6.86054E21	1.52395E22	109.73845	8.60353E17
50.0624	6.8713E21	1.52287E22	110.18923	7.96102E17
50.2928	6.89809E21	1.52019E22	110.64	6.13915E17
50.5232	6.83795E21	1.52621E22	111.09045	6.66362E17
50.75	6.86338E21	1.52366E22	111.54123	7.83208E17
50.942	6.80313E21	1.52969E22	111.992	8.66474E17
51.134	6.82436E21	1.52756E22	112.44245	7.51295E17
51.326	6.86273E21	1.52373E22	112.89323	8.36041E17
51.518	6.83899E21	1.5261E22	113.344	6.92397E17
51.71	6.81233E21	1.52877E22	113.79445	7.01424E17
51.902	6.80749E21	1.52925E22	114.24523	9.64734E17
52.094	6.84333E21	1.52567E22	114.696	6.75675E17
52.286	6.84951E21	1.52505E22	115.14645	6.73977E17
52.478	6.90446E21	1.51955E22	115.59723	7.04994E17
52.67	6.93975E21	1.51603E22	116.048	9.88322E17
52.862	6.89159E21	1.52084E22	116.49845	9.71362E17
53.054	6.94129E21	1.51587E22	116.94922	9.97679E17
53.246	6.88075E21	1.52193E22	117.4	7.64878E17
53.438	6.86633E21	1.52337E22	117.85045	6.8075E17
53.63	6.82226E21	1.52777E22	118.30123	9.85086E17
53.822	6.87001E21	1.523E22	118.752	8.69035E17
54.014	6.84532E21	1.52547E22	119.20245	7.17193E17
54.206	6.84076E21	1.52592E22	119.65323	7.77274E17
54.398	6.84859E21	1.52514E22	120.104	7.5272E17
54.59	6.85996E21	1.524E22	120.55445	7.94646E17
54.782	6.89875E21	1.52012E22	121.00523	7.28156E17
54.974	6.88797E21	1.5212E22	121.456	7.04294E17
55.166	6.92326E21	1.51767E22	121.90645	8.73216E17
55.358	6.90003E21	1.52E22	122.35723	6.63634E17
55.55	6.87377E21	1.52262E22	122.808	9.66347E17
55.742	6.86648E21	1.52335E22	123.25845	6.90411E17
55.934	6.848E21	1.5252E22	123.70923	9.22854E17
56.126	6.88028E21	1.52197E22	124.16	9.88143E17
56.318	6.85153E21	1.52485E22	124.61045	8.03155E17
56.51	6.90217E21	1.51978E22	125.06123	7.88947E17
56.702	6.8672E21	1.52328E22	125.512	1.12959E18
56.894	6.84063E21	1.52594E22	125.96245	6.17849E17
57.086	6.83158E21	1.52684E22	126.41323	9.66982E17
57.278	6.85489E21	1.52451E22	126.864	7.07952E17
57.47	6.82655E21	1.52734E22	127.31445	6.66031E17
57.662	6.88739E21	1.52126E22	127.76523	5.68397E17
57.854	6.87668E21	1.52233E22	128.216	7.38685E17
58.046	6.83653E21	1.52635E22	128.66645	7.91949E17
58.238	6.89509E21	1.52049E22	129.11723	9.35712E17
58.43	6.89487E21	1.52051E22	129.568	7.6262E17
58.622	6.93224E21	1.51678E22	130.01845	7.64031E17
58.814	6.82882E21	1.52712E22	130.46923	8.89435E17
59.006	6.9083E21	1.51917E22	130.92	8.74612E17
59.198	6.85718E21	1.52428E22	131.37045	7.2176E17
59.39	6.89788E21	1.52021E22	131.82123	6.62723E17
59.582	6.80968E21	1.52903E22	132.272	7.54461E17
59.774	6.8653E21	1.52347E22	132.72245	7.23525E17
59.966	6.87722E21	1.52228E22	133.17323	9.54114E17
60.158	6.87409E21	1.52259E22	133.624	6.76652E17
60.35	6.90816E21	1.51918E22	134.07445	8.30041E17
60.542	6.96527E21	1.51347E22	134.52523	8.68294E17
60.734	6.9366E21	1.51634E22	134.976	7.82397E17
60.926	6.88278E21	1.52172E22	135.42645	9.48423E17
61.118	6.86913E21	1.52309E22	135.87723	7.54805E17
61.31	6.82487E21	1.52751E22	136.328	9.19366E17
61.502	6.86159E21	1.52384E22	136.77845	7.48778E17
61.694	6.86022E21	1.52398E22	137.22923	9.59783E17
61.886	6.85462E21	1.52454E22	137.68	9.23837E17
62.078	6.84806E21	1.52519E22	138.13045	1.03182E18
62.27	6.86834E21	1.52317E22	138.58123	8.2728E17
62.462	6.80547E21	1.52945E22	139.032	1.06679E18
62.654	6.84379E21	1.52562E22	139.48245	1.02909E18
62.846	6.89415E21	1.52059E22	139.93322	1.26857E18
63.038	6.92101E21	1.5179E22	140.384	1.06896E18
63.23	6.9278E21	1.51722E22	140.83445	1.24803E18
63.422	6.91289E21	1.51871E22	141.28523	1.35657E18
63.614	6.87383E21	1.52262E22	141.736	1.62323E18
63.806	6.94876E21	1.51512E22	142.18645	1.66816E18
63.998	6.86333E21	1.52367E22	142.63723	2.39858E18
64.19	6.8855E21	1.52145E22	143.088	2.42697E18
64.382	6.89585E21	1.52042E22	143.53845	3.23749E18
64.574	6.89597E21	1.5204E22	143.98923	3.80125E18
64.766	6.87565E21	1.52243E22	144.44	4.7527E18
64.958	6.86537E21	1.52346E22	144.89045	6.68669E18
65.15	6.9295E21	1.51705E22	145.34123	7.87295E18
65.342	6.87124E21	1.52288E22	145.792	1.0742E19
65.534	6.89592E21	1.52041E22	146.24245	1.27188E19
65.726	6.87691E21	1.52231E22	146.69323	1.62417E19
65.918	6.9475E21	1.51525E22	147.144	1.95606E19
66.11	6.93773E21	1.51623E22	147.59445	2.53038E19
66.302	6.92363E21	1.51764E22	148.04523	2.73274E19
66.494	6.92139E21	1.51786E22	148.496	2.79832E19
66.686	6.90552E21	1.51945E22	148.94645	3.05685E19
66.878	6.92788E21	1.51721E22	149.39723	2.87761E19
67.07	6.84883E21	1.52512E22	149.848	2.58984E19
67.262	6.91363E21	1.51864E22	150.29845	2.31583E19
67.454	6.88793E21	1.52121E22	150.74923	2.08906E19
67.646	6.85678E21	1.52432E22	151.2	1.63803E19
67.838	6.79524E21	1.53048E22	151.65045	1.24396E19
68.03	6.81002E21	1.529E22	152.10122	1.06176E19
68.222	6.73248E21	1.53675E22	152.552	8.03448E18
68.414	6.64624E21	1.54538E22	153.00245	6.22974E18
68.606	6.34582E21	1.57542E22	153.45323	4.93933E18
68.798	6.10603E21	1.5994E22	153.904	3.81561E18
68.99	5.72089E21	1.63791E22	154.35445	3.0151E18
69.182	5.29353E21	1.68065E22	154.80523	2.9159E18
69.374	4.75365E21	1.73464E22	155.256	1.94932E18
69.566	4.2589E21	1.78411E22	155.70645	1.88024E18
69.758	3.72049E21	1.83795E22	156.15723	1.85739E18
69.95	3.16589E21	1.89341E22	156.608	1.73987E18
70.142	2.70709E21	1.93929E22	157.05845	1.52703E18
70.334	2.26079E21	1.98392E22	157.50923	1.20192E18
70.526	1.88579E21	2.02142E22	157.96	1.33949E18
70.718	1.56735E21	2.05326E22	158.41045	1.02545E18
70.91	1.32867E21	2.07713E22	158.86122	8.38535E17
71.102	1.07485E21	2.10252E22	159.312	1.36967E18
71.294	8.6964E20	2.12304E22	159.76245	7.48919E17
71.486	7.55229E20	2.13448E22	160.21323	7.58413E17
71.678	6.10558E20	2.14894E22	160.664	9.43136E17
71.87	5.09178E20	2.15908E22	161.11445	1.28133E18
72.062	4.43058E20	2.16569E22	161.56522	1.10609E18
72.254	3.97982E20	2.1702E22	162.016	9.37738E17
72.446	3.88169E20	2.17118E22	162.46645	6.93672E17
72.638	4.26379E20	2.16736E22	162.91723	1.03467E18
72.83	5.37195E20	2.15628E22	163.368	8.59661E17
73.022	7.32839E20	2.13672E22	163.81845	8.03401E17
73.214	1.02579E21	2.10742E22	164.26923	7.99401E17
73.406	1.40184E21	2.06982E22	164.72	7.6909E17
73.598	1.91765E21	2.01823E22	165.17045	5.69946E17
73.79	2.50212E21	1.95979E22	165.62123	7.8377E17
73.982	3.11261E21	1.89874E22	166.072	8.48899E17
74.174	3.66517E21	1.84348E22	166.52245	7.83192E17
74.366	4.25114E21	1.78489E22	166.97323	9.08756E17
74.558	4.68308E21	1.74169E22	167.424	9.87235E17
74.75	5.10019E21	1.69998E22	167.87445	8.23423E17
74.942	5.43386E21	1.66661E22	168.32523	5.15413E17
75.134	5.67077E21	1.64292E22	168.776	8.44196E17
75.326	5.85554E21	1.62445E22	169.22645	8.92777E17
75.518	6.08564E21	1.60144E22	169.67722	9.85269E17
75.71	6.18439E21	1.59156E22	170.128	1.04866E18
75.902	6.32409E21	1.57759E22	170.57845	8.60385E17
76.094	6.36987E21	1.57301E22	171.02922	1.03591E18
76.286	6.49184E21	1.56082E22	171.48	9.81143E17
76.478	6.53666E21	1.55633E22	171.93045	6.73665E17
76.67	6.60154E21	1.54985E22	172.38123	8.31747E17
76.862	6.64011E21	1.54599E22	172.832	7.26202E17
77.054	6.64962E21	1.54504E22	173.28245	7.21331E17
77.246	6.73781E21	1.53622E22	173.73323	6.25518E17
77.438	6.7084E21	1.53916E22	174.184	4.39447E17
77.63	6.80135E21	1.52987E22	174.63445	6.84674E17
77.822	6.78364E21	1.53164E22	175.08523	6.47045E17
78.014	6.8349E21	1.52651E22	175.536	9.11868E17
78.206	6.79933E21	1.53007E22	175.98645	7.51655E17
78.398	6.81317E21	1.52868E22	176.43723	7.03387E17
78.59	6.80429E21	1.52957E22	176.888	9.22923E17
78.782	6.87878E21	1.52212E22	177.33845	5.64937E17
78.974	6.81576E21	1.52842E22	177.78922	4.09372E17
79.166	6.82876E21	1.52712E22	178.24	5.0965E17
79.358	6.87501E21	1.5225E22	178.69045	5.47606E17
79.55	6.83977E21	1.52602E22	179.14122	5.33616E17
79.742	6.8815E21	1.52185E22	179.592	3.90748E17
79.934	6.90341E21	1.51966E22	180.04245	4.56355E17
80.126	6.92929E21	1.51707E22	180.49323	3.75814E17
80.318	6.95429E21	1.51457E22	180.944	2.51425E17
80.51	6.83348E21	1.52665E22	181.39445	5.01423E17
80.72888	6.91431E21	1.51857E22	181.84522	7.40451E17
80.94776	6.86179E21	1.52382E22	182.296	6.48263E17
81.16664	6.90706E21	1.51929E22	182.74645	6.13986E17
81.38552	6.87667E21	1.52233E22	183.19723	8.73774E17
81.6044	6.87273E21	1.52273E22	183.648	6.7472E17
81.82328	6.87572E21	1.52243E22	184.09845	6.33905E17
82.04216	6.9109E21	1.51891E22	184.54923	9.6922E17
82.26104	6.93563E21	1.51644E22	185	7.10794E17
82.47992	6.9237E21	1.51763E22	185.45045	8.2255E17
82.6988	6.96481E21	1.51352E22	185.90123	9.14864E17
82.91768	6.92429E21	1.51757E22	186.352	8.83576E17
83.13656	6.9766E21	1.51234E22	186.80245	6.58562E17
83.35544	6.99378E21	1.51062E22	187.25323	7.73918E17
83.57432	6.92572E21	1.51743E22	187.704	6.81001E17
83.7932	6.88944E21	1.52106E22	188.15445	4.87963E17
84.01208	6.86666E21	1.52333E22	188.60523	7.5209E17
84.23096	6.90305E21	1.51969E22	189.056	7.45089E17
84.44984	6.91801E21	1.5182E22	189.5	8.39471E17
84.66872	6.90729E21	1.51927E22	189.92997	7.24233E17
84.8876	6.87814E21	1.52219E22	190.35994	7.8082E17
85.10648	6.92032E21	1.51797E22	190.7896	5.46395E17
85.32536	6.90295E21	1.5197E22	191.21957	6.81879E17
85.54424	6.89027E21	1.52097E22	191.64954	7.23586E17
85.76312	6.86914E21	1.52309E22	192.0792	1.15655E18
85.982	6.90605E21	1.51939E22	192.50917	6.67524E17
86.20088	6.94574E21	1.51543E22	192.93914	4.79892E17
86.41976	6.97252E21	1.51275E22	193.3688	5.68856E17
86.63864	6.90199E21	1.5198E22	193.79877	6.13243E17
86.85752	6.8826E21	1.52174E22	194.22874	7.4822E17
87.0764	6.94081E21	1.51592E22	194.6584	6.47489E17
87.29528	6.8923E21	1.52077E22	195.08837	8.19377E17
87.51416	6.88229E21	1.52177E22	195.51834	7.97196E17
87.73304	6.88097E21	1.5219E22	195.948	6.53537E17
87.95192	6.90794E21	1.51921E22	196.37797	7.10092E17
88.1708	6.88376E21	1.52162E22	196.80794	7.23381E17
88.38968	6.90086E21	1.51991E22	197.2376	6.79942E17
88.60856	6.92171E21	1.51783E22	197.66757	8.66757E17
88.82744	6.92901E21	1.5171E22	198.09754	5.66516E17
89.04632	6.90271E21	1.51973E22	198.5272	4.50193E17
89.2652	6.96689E21	1.51331E22	198.95717	8.38771E17
89.48408	6.9356E21	1.51644E22	199.38714	7.81917E17
89.70296	6.8726E21	1.52274E22	199.8168	7.20809E17
89.92184	6.92464E21	1.51754E22	200.24677	7.81177E17
90.14072	6.81766E21	1.52823E22	200.67674	8.24226E17
90.3596	6.83693E21	1.52631E22	201.1064	6.90541E17
90.57848	6.82238E21	1.52776E22	201.53637	5.68559E17
90.79736	6.8553E21	1.52447E22	201.96634	8.73464E17
91.01624	6.85503E21	1.5245E22	202.396	9.05974E17
91.23512	6.89569E21	1.52043E22	202.82597	8.39976E17
91.454	6.93677E21	1.51632E22	203.25594	9.24958E17
91.67288	6.95128E21	1.51487E22	203.6856	7.58004E17
91.89176	6.83613E21	1.52639E22	204.11557	9.32929E17
92.11064	6.92057E21	1.51794E22	204.54554	7.45783E17
92.32952	6.90219E21	1.51978E22	204.9752	6.80305E17
92.5484	6.89362E21	1.52064E22	205.40517	8.31434E17
92.76728	6.91562E21	1.51844E22	205.83514	6.55063E17
92.98616	6.95565E21	1.51444E22	206.2648	6.40961E17
93.20504	6.90643E21	1.51936E22	206.69477	6.67491E17
93.42392	6.89135E21	1.52086E22	207.12474	7.63064E17
93.6428	6.87662E21	1.52234E22	207.5544	5.72685E17
93.86168	6.86646E21	1.52335E22	207.98437	8.78859E17
94.08056	6.85527E21	1.52447E22	208.41434	4.56028E17
94.29944	6.88642E21	1.52136E22	208.844	6.48914E17
94.51832	6.92672E21	1.51733E22	209.27397	6.69409E17
94.7372	6.93618E21	1.51638E22	209.70394	6.54069E17
94.95608	6.84909E21	1.52509E22	210.1336	7.90078E17
95.17496	6.93585E21	1.51642E22	210.56357	8.91308E17
95.39384	6.94255E21	1.51574E22	210.99354	1.07655E18
95.61272	6.90033E21	1.51997E22	211.4232	5.29049E17
95.8316	6.89535E21	1.52046E22	211.85317	6.11129E17
96.05048	6.87751E21	1.52225E22	212.28314	9.00856E17
96.26936	6.93304E21	1.5167E22	212.7128	8.11529E17
96.48824	6.91109E21	1.51889E22	213.14277	8.43128E17
96.70712	6.86062E21	1.52394E22	213.57274	9.2077E17
96.926	6.85098E21	1.5249E22	214.0024	6.98862E17
97.14488	6.88428E21	1.52157E22	214.43237	6.91267E17
97.36376	6.89099E21	1.5209E22	214.86234	5.91632E17
97.58264	6.90354E21	1.51965E22	215.292	8.21573E17
97.80152	6.8679E21	1.52321E22	215.72197	8.46145E17
98.0204	6.91611E21	1.51839E22	216.15194	9.67117E17
98.23928	6.90797E21	1.5192E22	216.5816	7.57362E17
98.45816	6.89748E21	1.52025E22	217.01157	9.17432E17
98.67704	6.91453E21	1.51855E22	217.44154	7.22754E17
98.89592	6.89417E21	1.52058E22	217.8712	7.33623E17
99.1148	6.89934E21	1.52007E22	218.30117	8.35082E17
99.33368	6.82884E21	1.52712E22	218.73114	5.96661E17
99.55256	6.86843E21	1.52316E22	219.1608	6.77245E17
99.77144	6.95998E21	1.514E22	219.59077	8.4869E17
99.99032	6.87102E21	1.5229E22	220.02074	7.5126E17
100.2092	6.90456E21	1.51954E22	220.4504	6.25481E17
100.42808	6.88911E21	1.52109E22	220.88037	1.129E18
100.64696	6.94381E21	1.51562E22	221.31034	6.79019E17
100.86584	6.95683E21	1.51432E22	221.74	6.98122E17
101.08472	6.93283E21	1.51672E22	222.16997	9.36423E17
101.3036	6.89445E21	1.52056E22	222.59994	1.08832E18
101.52248	6.95043E21	1.51496E22	223.0296	6.70951E17
101.74136	6.93381E21	1.51662E22	223.45957	8.88649E17
101.96024	6.834E21	1.5266E22	223.88954	5.90122E17
102.17912	6.91393E21	1.51861E22	224.3192	7.238E17
102.398	6.8655E21	1.52345E22	224.74917	8.37243E17
102.61688	6.82046E21	1.52795E22	225.17914	6.93047E17
102.83576	6.90797E21	1.5192E22	225.6088	6.05387E17
103.05464	6.87508E21	1.52249E22	226.03877	7.17821E17
103.27352	6.91998E21	1.518E22	226.46874	1.08361E18
103.4924	6.93344E21	1.51666E22	226.8984	8.01984E17
103.71128	6.92481E21	1.51752E22	227.32837	6.54069E17
103.93016	6.94593E21	1.51541E22	227.75834	6.34208E17
104.14904	6.94835E21	1.51516E22	228.188	6.83394E17
104.36792	6.90907E21	1.51909E22	228.61797	7.93957E17
104.5868	6.89962E21	1.52004E22	229.04794	5.54271E17
104.80568	6.88253E21	1.52175E22	229.4776	6.85738E17
105.02456	6.938E21	1.5162E22	229.90757	7.9243E17
105.24344	6.88873E21	1.52113E22	230.33754	4.80631E17
105.46232	6.8975E21	1.52025E22	230.7672	8.78563E17
105.6812	6.85259E21	1.52474E22	231.19717	5.75817E17
105.90008	6.89405E21	1.52059E22	231.62714	1.11294E18
106.11896	6.88191E21	1.52181E22	232.0568	6.78493E17
106.33784	6.94389E21	1.51561E22	232.48677	7.06077E17
106.55672	6.92452E21	1.51755E22	232.91674	6.41785E17
106.7756	6.90062E21	1.51994E22	233.3464	8.2943E17
106.99448	6.9554E21	1.51446E22	233.77637	7.80411E17
107.21336	6.92567E21	1.51743E22	234.20634	6.468E17
107.43224	6.88238E21	1.52176E22	234.636	7.44909E17
107.65112	6.97144E21	1.51286E22	235.06597	6.96377E17
107.87	6.87987E21	1.52201E22	235.49594	9.63855E17
108.08888	6.88158E21	1.52184E22	235.9256	6.79414E17
108.30776	6.87099E21	1.5229E22	236.35557	7.34863E17
108.52664	6.89079E21	1.52092E22	236.78554	7.27309E17
108.74552	6.90611E21	1.51939E22	237.2152	8.84487E17
108.9644	6.91872E21	1.51813E22	237.64517	6.92386E17
109.18328	6.89401E21	1.5206E22	238.07514	8.34444E17
109.40216	6.95891E21	1.51411E22	238.5048	6.07033E17
109.62104	6.90723E21	1.51928E22	238.93477	9.62773E17
109.83992	6.91242E21	1.51876E22	239.36474	7.45551E17
110.0588	6.96386E21	1.51361E22	239.7944	7.46125E17
110.27768	6.86575E21	1.52343E22	240.22437	9.5511E17
110.49656	6.92155E21	1.51785E22	240.65434	5.94277E17
110.71544	6.91174E21	1.51883E22	241.084	8.95016E17
110.93432	6.86888E21	1.52311E22	241.51397	1.03069E18
111.1532	6.86708E21	1.52329E22	241.94394	8.5067E17
111.37208	6.87081E21	1.52292E22	242.3736	9.17567E17
111.59096	6.88174E21	1.52183E22	242.80357	6.33158E17
111.80984	6.88737E21	1.52126E22	243.23354	9.69179E17
112.02872	6.86689E21	1.52331E22	243.6632	7.01567E17
112.2476	6.88352E21	1.52165E22	244.09317	6.84731E17
112.46648	6.91852E21	1.51815E22	244.52314	8.23245E17
112.68536	6.91164E21	1.51884E22	244.9528	8.86267E17
112.90424	6.89277E21	1.52072E22	245.38277	7.49372E17
113.12312	6.85007E21	1.52499E22	245.81274	8.32843E17
113.342	6.91383E21	1.51862E22	246.2424	1.47443E18
113.56088	6.91657E21	1.51834E22	246.67237	1.01547E18
113.77976	6.92602E21	1.5174E22	247.10234	1.10747E18
113.99864	6.91231E21	1.51877E22	247.532	1.62008E18
114.21752	6.90335E21	1.51967E22	247.96197	1.19835E18
114.4364	6.911E21	1.5189E22	248.39194	1.4865E18
114.65528	6.88661E21	1.52134E22	248.8216	1.63693E18
114.87416	6.89951E21	1.52005E22	249.25157	2.336E18
115.09304	6.92612E21	1.51739E22	249.68154	1.98991E18
115.31192	6.94391E21	1.51561E22	250.1112	2.21153E18
115.5308	6.94339E21	1.51566E22	250.54117	3.0541E18
115.74968	6.86122E21	1.52388E22	250.97114	3.2119E18
115.96856	6.93523E21	1.51648E22	251.4008	3.95153E18
116.18744	6.87727E21	1.52227E22	251.83077	4.71023E18
116.40632	6.92819E21	1.51718E22	252.26074	5.24258E18
116.6252	6.87882E21	1.52212E22	252.6904	6.65307E18
116.84408	6.95232E21	1.51477E22	253.12037	8.35082E18
117.06296	6.89608E21	1.52039E22	253.55034	9.14342E18
117.28184	6.92184E21	1.51782E22	253.98	1.16007E19
117.50072	6.89381E21	1.52062E22	254.40997	1.31416E19
117.7196	6.83077E21	1.52692E22	254.83994	1.66432E19
117.93848	6.89122E21	1.52088E22	255.2696	1.96671E19
118.15736	6.90454E21	1.51955E22	255.69957	2.09801E19
118.37624	6.92712E21	1.51729E22	256.12954	2.40203E19
118.59512	6.90456E21	1.51954E22	256.5592	2.44717E19
118.814	6.94134E21	1.51587E22	256.98917	2.49731E19
119.03288	6.89414E21	1.52059E22	257.41914	2.51872E19
119.25176	6.96682E21	1.51332E22	257.8488	2.55838E19
119.47064	6.92007E21	1.51799E22	258.27877	2.08567E19
119.68952	6.88761E21	1.52124E22	258.70874	1.79116E19
119.9084	6.93466E21	1.51653E22	259.1384	1.64946E19
120.12728	6.91271E21	1.51873E22	259.56837	1.38364E19
120.34616	6.94144E21	1.51586E22	259.99834	1.21759E19
120.56504	6.93002E21	1.517E22	260.428	9.81347E18
120.78392	6.93732E21	1.51627E22	260.85797	7.57489E18
121.0028	6.8816E21	1.52184E22	261.28794	6.14567E18
121.22168	6.87251E21	1.52275E22	261.7176	5.87608E18
121.44056	6.94104E21	1.5159E22	262.14757	4.31699E18
121.65944	6.91214E21	1.51879E22	262.57754	3.97752E18
121.87832	6.92916E21	1.51708E22	263.0072	3.86667E18
122.0972	6.94092E21	1.51591E22	263.43717	2.89606E18
122.31608	6.90368E21	1.51963E22	263.86714	2.70132E18
122.53496	6.862E21	1.5238E22	264.2968	2.03691E18
122.75384	6.93474E21	1.51653E22	264.72677	2.32365E18
122.97272	6.85934E21	1.52407E22	265.15674	1.82987E18
123.1916	6.90175E21	1.51983E22	265.5864	1.49246E18
123.41048	6.8864E21	1.52136E22	266.01637	1.64013E18
123.62936	6.88435E21	1.52156E22	266.44634	1.32748E18
123.84824	6.8701E21	1.52299E22	266.876	1.47073E18
124.06712	6.94234E21	1.51577E22	267.30597	1.24051E18
124.286	6.92496E21	1.5175E22	267.73594	9.74278E17
124.50488	6.87434E21	1.52257E22	268.1656	1.05112E18
124.72376	6.92633E21	1.51737E22	268.59557	1.05779E18
124.94264	6.95776E21	1.51422E22	269.02554	1.13592E18
125.16152	6.92958E21	1.51704E22	269.4552	1.22856E18
125.3804	6.9432E21	1.51568E22	269.88517	9.28551E17
125.59928	6.92368E21	1.51763E22	270.31514	7.53744E17
125.81816	6.89592E21	1.52041E22	270.7448	7.23381E17
126.03704	6.91508E21	1.51849E22	271.17477	8.7007E17
126.25592	6.93355E21	1.51664E22	271.60474	7.57502E17
126.4748	6.90648E21	1.51935E22	272.0344	7.19245E17
126.69368	6.93319E21	1.51668E22	272.46437	6.917E17
126.91256	6.92089E21	1.51791E22	272.89434	8.88275E17
127.13144	6.87237E21	1.52276E22	273.324	6.29479E17
127.35032	6.92929E21	1.51707E22	273.75397	5.69985E17
127.5692	6.91414E21	1.51859E22	274.18394	6.63977E17
127.78808	6.88173E21	1.52183E22	274.6136	9.23138E17
128.00696	6.98525E21	1.51148E22	275.04357	7.82243E17
128.22584	6.90538E21	1.51946E22	275.47354	9.23496E17
128.44472	6.95231E21	1.51477E22	275.9032	8.73024E17
128.6636	6.94341E21	1.51566E22	276.33317	7.59951E17
128.88248	6.85948E21	1.52405E22	276.76314	6.50163E17
129.10136	6.95481E21	1.51452E22	277.1928	7.47204E17
129.32024	6.93171E21	1.51683E22	277.62277	7.01703E17
129.53912	6.92285E21	1.51771E22	278.05274	7.85545E17
129.758	6.93844E21	1.51616E22	278.4824	6.27716E17
129.97688	6.92405E21	1.51759E22	278.91237	6.10114E17
130.19576	6.96755E21	1.51325E22	279.34234	7.70638E17
130.41464	6.92293E21	1.51771E22	279.772	4.35203E17
130.63352	6.9265E21	1.51735E22	280.20197	7.44047E17
130.8524	6.87865E21	1.52214E22	280.63194	8.51747E17
131.07128	6.93288E21	1.51671E22	281.0616	8.48772E17
131.29016	6.94383E21	1.51562E22	281.49157	5.72247E17
131.50904	6.97176E21	1.51282E22	281.92154	9.22689E17
131.72792	6.93326E21	1.51667E22	282.3512	6.12986E17
131.9468	6.88526E21	1.52147E22	282.78117	9.20672E17
132.16568	6.86369E21	1.52363E22	283.21114	6.47023E17
132.38456	6.89239E21	1.52076E22	283.6408	8.68854E17
132.60344	6.93919E21	1.51608E22	284.07077	6.05455E17
132.82232	6.87432E21	1.52257E22	284.50074	3.90102E17
133.0412	6.94908E21	1.51509E22	284.9304	5.27055E17
133.26008	6.87979E21	1.52202E22	285.36037	5.5337E17
133.47896	6.92521E21	1.51748E22	285.79034	6.14726E17
133.69784	6.90002E21	1.52E22	286.22	4.50388E17
133.91672	6.9269E21	1.51731E22	286.64997	6.811E17
134.1356	6.93531E21	1.51647E22	287.07994	4.28281E17
134.35448	6.9232E21	1.51768E22	287.5096	4.09635E17
134.57336	6.89545E21	1.52046E22	287.93957	5.3924E17
134.79224	6.94805E21	1.51519E22	288.36954	4.21657E17
135.01112	6.87031E21	1.52297E22	288.7992	5.40765E17
135.23	6.93421E21	1.51658E22	289.22917	1.01798E18
135.44888	6.83416E21	1.52658E22	289.65914	5.75089E17
135.66776	6.90623E21	1.51938E22	290.0888	7.99873E17
135.88664	6.93362E21	1.51664E22	290.51877	6.09756E17
136.10552	6.8779E21	1.52221E22	290.94874	5.01072E17
136.3244	6.91151E21	1.51885E22	291.3784	7.22642E17
136.54328	6.91159E21	1.51884E22	291.80837	9.96547E17
136.76216	6.93247E21	1.51675E22	292.23834	7.42574E17
136.98104	6.89587E21	1.52041E22	292.668	1.0077E18
137.19992	6.88843E21	1.52116E22	293.09797	8.84644E17
137.4188	6.9157E21	1.51843E22	293.52794	7.08056E17
137.63768	6.94253E21	1.51575E22	293.9576	9.84252E17
137.85656	6.94839E21	1.51516E22	294.38757	1.06313E18
138.07544	6.8754E21	1.52246E22	294.81754	8.07545E17
138.29432	6.91934E21	1.51807E22	295.2472	7.33138E17
138.5132	6.89857E21	1.52014E22	295.67717	8.43254E17
138.73208	6.91652E21	1.51835E22	296.10714	7.76925E17
138.95096	6.90909E21	1.51909E22	296.5368	5.9018E17
139.16984	6.88938E21	1.52106E22	296.96677	5.24455E17
139.38872	6.89318E21	1.52068E22	297.39674	8.82294E17
139.6076	6.94095E21	1.5159E22	297.8264	5.70504E17
139.82648	6.87148E21	1.52285E22	298.25637	4.60137E17
140.04536	6.9197E21	1.51803E22	298.68634	6.44763E17
140.26424	6.86465E21	1.52353E22	299.116	7.84082E17
140.48312	6.88907E21	1.52109E22	299.54597	8.7703E17
140.702	6.87211E21	1.52279E22	299.97594	8.71249E17
140.92088	6.92803E21	1.5172E22	300.4056	8.02493E17
141.13976	6.91718E21	1.51828E22	300.83557	8.73024E17
141.35864	6.91779E21	1.51822E22	301.26554	7.10295E17
141.57752	6.94689E21	1.51531E22	301.6952	8.18063E17
141.7964	6.89345E21	1.52066E22	302.12517	6.8825E17
142.01528	6.88282E21	1.52172E22	302.55514	6.11247E17
142.23416	6.89599E21	1.5204E22	302.9848	7.76619E17
142.45304	6.88635E21	1.52137E22	303.41477	5.88625E17
142.67192	6.96258E21	1.51374E22	303.84474	4.42304E17
142.8908	6.90399E21	1.5196E22	304.2744	8.25323E17
143.10968	6.92242E21	1.51776E22	304.70437	7.88492E17
143.32856	6.93693E21	1.51631E22	305.13434	5.87084E17
143.54744	6.93999E21	1.516E22	305.564	7.78133E17
143.76632	6.93965E21	1.51604E22	305.99397	6.98122E17
143.9852	6.93289E21	1.51671E22	306.42394	6.42796E17
144.20408	6.94211E21	1.51579E22	306.8536	7.21571E17
144.42296	6.8996E21	1.52004E22	307.28357	6.08096E17
144.64184	6.8467E21	1.52533E22	307.71354	8.51415E17
144.86072	6.893E21	1.5207E22	308.1432	6.58022E17
145.0796	6.82561E21	1.52744E22	308.57317	7.97873E17
145.29848	6.76463E21	1.53354E22	309.00314	8.00239E17
145.51736	6.63745E21	1.54625E22	309.4328	8.55389E17
145.73624	6.59598E21	1.5504E22	309.86277	9.44898E17
145.95512	6.5377E21	1.55623E22	310.29274	7.91608E17
146.174	6.32084E21	1.57792E22	310.7224	5.64224E17
146.39288	6.08335E21	1.60166E22	311.15237	7.37827E17
146.61176	5.84044E21	1.62596E22	311.58234	6.25421E17
146.83064	5.62005E21	1.64799E22	312.012	5.14706E17
147.04952	5.23937E21	1.68606E22	312.44197	8.07242E17
147.2684	4.93592E21	1.71641E22	312.87194	5.4423E17
147.48728	4.57208E21	1.75279E22	313.3016	8.76339E17
147.70616	4.20507E21	1.78949E22	313.73157	8.03233E17
147.92504	3.84502E21	1.8255E22	314.16154	7.29573E17
148.14392	3.48128E21	1.86187E22	314.5912	7.42502E17
148.3628	3.19836E21	1.89016E22	315.02117	6.8168E17
148.58168	2.99228E21	1.91077E22	315.45114	6.91086E17
148.80056	2.85853E21	1.92415E22	315.8808	7.04636E17
149.01944	2.67633E21	1.94237E22	316.31077	5.97014E17
149.23832	2.76685E21	1.93331E22	316.74074	7.41474E17
149.4572	2.81184E21	1.92882E22	317.1704	7.116E17
149.67608	2.96648E21	1.91335E22	317.60037	8.53842E17
149.89496	3.23997E21	1.886E22	318.03034	7.10854E17
150.11384	3.48112E21	1.86189E22	318.46	6.44586E17
150.33272	3.82428E21	1.82757E22	318.88997	8.1129E17
150.5516	4.18468E21	1.79153E22	319.31994	8.31946E17
150.77048	4.51702E21	1.7583E22	319.7496	6.80074E17
150.98936	4.79388E21	1.73061E22	320.17957	7.73453E17
151.20824	5.13398E21	1.6966E22	320.60954	6.04594E17
151.42712	5.36757E21	1.67324E22	321.0392	8.12248E17
151.646	5.65999E21	1.644E22	321.46917	8.93922E17
151.86488	5.85945E21	1.62405E22	321.89914	1.00985E18
152.08376	6.00365E21	1.60963E22	322.3288	7.60102E17
152.30264	6.14967E21	1.59503E22	322.75877	6.58471E17
152.52152	6.27542E21	1.58246E22	323.18874	6.66731E17
152.7404	6.36747E21	1.57325E22	323.6184	7.65886E17
152.95928	6.52554E21	1.55745E22	324.04837	4.99801E17
153.17816	6.57705E21	1.5523E22	324.47834	6.94376E17
153.39704	6.6237E21	1.54763E22	324.908	5.46122E17
153.61592	6.65995E21	1.54401E22	325.33797	6.66665E17
153.8348	6.73319E21	1.53668E22	325.76794	7.77254E17
154.05368	6.76849E21	1.53315E22	326.1976	6.50521E17
154.27256	6.7381E21	1.53619E22	326.62757	7.41254E17
154.49144	6.8062E21	1.52938E22	327.05754	7.72143E17
154.71032	6.81185E21	1.52881E22	327.48627	7.82591E17
154.9292	6.80656E21	1.52934E22	327.91717	8.2624E17
155.14808	6.85755E21	1.52425E22	328.34807	5.59121E17
155.36696	6.89121E21	1.52088E22	328.77587	7.45899E17
155.58584	6.78554E21	1.53145E22	329.20677	6.78732E17
155.80472	6.8273E21	1.52727E22	329.63767	5.26474E17
156.0236	6.91532E21	1.51847E22	330.06547	7.73453E17
156.24248	6.86399E21	1.5236E22	330.49637	7.90826E17
156.46136	6.90722E21	1.51928E22	330.92727	7.17538E17
156.68024	6.94375E21	1.51562E22	331.35507	7.26307E17
156.89912	6.91218E21	1.51878E22	331.78597	7.52786E17
157.118	6.8925E21	1.52075E22	332.21687	6.5026E17
157.33688	6.88839E21	1.52116E22	332.64467	7.49701E17
157.55576	6.90757E21	1.51924E22	333.07557	7.69996E17
157.77464	6.95283E21	1.51472E22	333.50647	6.23132E17
157.99352	6.86861E21	1.52314E22	333.93427	8.24836E17
158.2124	6.97482E21	1.51252E22	334.36517	7.09148E17
158.43128	6.92071E21	1.51793E22	334.79607	7.3507E17
158.65016	6.97017E21	1.51298E22	335.22387	1.08138E18
158.86904	6.96522E21	1.51348E22	335.65477	5.96065E17
159.08792	6.94937E21	1.51506E22	336.08567	8.55326E17
159.3068	6.95202E21	1.5148E22	336.51347	8.54615E17
159.52568	6.89664E21	1.52034E22	336.94437	6.02167E17
159.74456	6.94099E21	1.5159E22	337.37527	7.09652E17
159.96344	6.94856E21	1.51514E22	337.80307	9.33683E17
160.18232	6.90434E21	1.51957E22	338.23397	8.05638E17
160.4012	6.93263E21	1.51674E22	338.66487	7.3844E17
160.62008	6.96149E21	1.51385E22	339.09267	8.80192E17
160.83896	6.89574E21	1.52043E22	339.52357	6.95066E17
161.05784	6.94823E21	1.51518E22	339.95447	7.82354E17
161.27672	6.95107E21	1.51489E22	340.38227	8.47111E17
161.4956	6.90744E21	1.51926E22	340.81317	6.90677E17
161.71448	6.90185E21	1.51981E22	341.24407	9.64174E17
161.93336	6.9093E21	1.51907E22	341.67187	8.67538E17
162.15224	6.99244E21	1.51076E22	342.10277	6.77778E17
162.37112	7.00243E21	1.50976E22	342.53367	8.1276E17
162.59	6.91394E21	1.51861E22	342.96147	1.05348E18
162.80888	6.94431E21	1.51557E22	343.39237	8.05949E17
163.02776	6.97114E21	1.51289E22	343.82327	6.105E17
163.24664	6.96692E21	1.51331E22	344.25107	7.88082E17
163.46552	6.89985E21	1.52002E22	344.68197	7.72958E17
163.6844	6.94163E21	1.51584E22	345.11287	5.98772E17
163.90328	6.95861E21	1.51414E22	345.54067	6.9096E17
164.12216	6.95423E21	1.51458E22	345.97157	6.16206E17
164.34104	6.93168E21	1.51683E22	346.40247	9.23457E17
164.55992	6.95121E21	1.51488E22	346.83027	8.52802E17
164.7788	6.9493E21	1.51507E22	347.26117	9.61138E17
164.99768	6.92123E21	1.51788E22	347.69207	7.80114E17
165.21656	6.93337E21	1.51666E22	348.11987	7.30461E17
165.43544	6.90158E21	1.51984E22	348.55077	6.15573E17
165.65432	6.97052E21	1.51295E22	348.98167	5.94561E17
165.8732	6.93664E21	1.51634E22	349.40947	7.59321E17
166.09208	6.93728E21	1.51627E22	349.84037	6.75044E17
166.31096	6.90863E21	1.51914E22	350.27127	9.1659E17
166.52984	6.96442E21	1.51356E22	350.69907	8.99187E17
166.74872	6.93822E21	1.51618E22	351.12997	9.69982E17
166.9676	6.91262E21	1.51874E22	351.56087	5.73453E17
167.18648	6.96877E21	1.51312E22	351.98867	8.3368E17
167.40536	6.88198E21	1.5218E22	352.41957	6.51518E17
167.62424	6.96433E21	1.51357E22	352.85047	8.56343E17
167.84312	6.90549E21	1.51945E22	353.27827	5.99271E17
168.062	6.90826E21	1.51917E22	353.70917	6.18811E17
168.28088	6.91027E21	1.51897E22	354.14007	6.24024E17
168.49976	6.97227E21	1.51277E22	354.56787	8.66871E17
168.71864	6.91588E21	1.51841E22	354.99877	7.442E17
168.93752	7.04058E21	1.50594E22	355.42967	7.24564E17
169.1564	6.91683E21	1.51832E22	355.85747	6.61982E17
169.37528	6.94576E21	1.51542E22	356.28837	1.01215E18
169.59416	6.91406E21	1.51859E22	356.71927	9.92272E17
169.81304	6.9188E21	1.51812E22	357.14707	6.01402E17
170.03192	6.89988E21	1.52001E22	357.57797	1.03972E18
170.2508	6.91683E21	1.51832E22	358.00887	1.05697E18
170.46968	6.92506E21	1.51749E22	358.43667	1.01425E18
170.68856	6.94672E21	1.51533E22	358.86757	1.05374E18
170.90744	6.90026E21	1.51997E22	359.29847	9.06667E17
171.12632	6.92655E21	1.51735E22	359.72627	1.06883E18
171.3452	6.90281E21	1.51972E22	360.15717	1.0591E18
171.56408	6.98477E21	1.51152E22	360.58807	8.9852E17
171.78296	7.0121E21	1.50879E22	361.01587	1.34339E18
172.00184	6.9917E21	1.51083E22	361.44677	1.28004E18
172.22072	7.0049E21	1.50951E22	361.87767	1.42991E18
172.4396	6.96182E21	1.51382E22	362.30547	1.47791E18
172.65848	6.89218E21	1.52078E22	362.73637	1.21494E18
172.87736	6.93582E21	1.51642E22	363.16727	1.37391E18
173.09624	6.97308E21	1.51269E22	363.59507	1.32056E18
173.31512	6.92271E21	1.51773E22	364.02597	1.27578E18
173.534	6.93184E21	1.51682E22	364.45687	1.72377E18
173.75288	6.97131E21	1.51287E22	364.88467	1.9746E18
173.97176	6.89403E21	1.5206E22	365.31557	2.08133E18
174.19064	6.88406E21	1.52159E22	365.74647	2.01943E18
174.40952	6.8682E21	1.52318E22	366.17427	2.58747E18
174.6284	6.80104E21	1.5299E22	366.60517	2.73192E18
174.84728	6.78691E21	1.53131E22	367.03607	3.28307E18
175.06616	6.68958E21	1.54104E22	367.46387	3.81632E18
175.28504	6.60797E21	1.5492E22	367.89477	4.16172E18
175.50392	6.4377E21	1.56623E22	368.32567	4.45356E18
175.7228	6.32598E21	1.5774E22	368.75347	4.75185E18
175.94168	6.11435E21	1.59856E22	369.18437	5.44249E18
176.16056	5.936E21	1.6164E22	369.61527	5.26901E18
176.37944	5.70252E21	1.63975E22	370.04307	6.0285E18
176.59832	5.44216E21	1.66578E22	370.47397	5.71555E18
176.8172	5.06986E21	1.70301E22	370.90487	7.10766E18
177.03608	4.70006E21	1.73999E22	371.33267	5.76809E18
177.25496	4.33246E21	1.77675E22	371.76357	5.5693E18
177.47384	3.91936E21	1.81806E22	372.19447	6.95036E18
177.69272	3.57845E21	1.85216E22	372.62227	6.76267E18
177.9116	3.18592E21	1.89141E22	373.05317	7.28051E18
178.13048	2.75955E21	1.93404E22	373.48407	6.86939E18
178.34936	2.41447E21	1.96855E22	373.91187	6.4665E18
178.56824	2.12959E21	1.99704E22	374.34277	6.63097E18
178.78712	1.82255E21	2.02775E22	374.77367	6.92061E18
179.006	1.55851E21	2.05415E22	375.20147	6.3437E18
179.22488	1.37922E21	2.07208E22	375.63237	5.89847E18
179.44376	1.2112E21	2.08888E22	376.06327	7.34283E18
179.66264	1.06191E21	2.10381E22	376.49107	6.48477E18
179.88152	9.98627E20	2.11014E22	376.92197	6.96827E18
180.1004	9.43745E20	2.11563E22	377.35287	7.21634E18
180.31928	9.51189E20	2.11488E22	377.78067	6.86432E18
180.53816	1.02478E21	2.10752E22	378.21157	6.51302E18
180.75704	1.06757E21	2.10324E22	378.64247	6.68302E18
180.97592	1.19437E21	2.09056E22	379.07027	7.20072E18
181.1948	1.33797E21	2.0762E22	379.50117	7.36634E18
181.41368	1.57735E21	2.05227E22	379.93207	6.90699E18
181.63256	1.77966E21	2.03203E22	380.35987	7.36273E18
181.85144	2.08986E21	2.00101E22	380.79077	5.88102E18
182.07032	2.43574E21	1.96643E22	381.22167	6.48399E18
182.2892	2.76028E21	1.93397E22	381.64947	7.62898E18
182.50808	3.17647E21	1.89235E22	382.08037	7.41693E18
182.72696	3.61168E21	1.84883E22	382.51127	7.75324E18
182.94584	3.95482E21	1.81452E22	382.93907	7.55599E18
183.16472	4.32444E21	1.77756E22	383.36997	6.32842E18
183.3836	4.64282E21	1.74572E22	383.80087	7.26869E18
183.60248	5.03263E21	1.70674E22	384.22867	7.2416E18
183.82136	5.30885E21	1.67911E22	384.65957	6.65712E18
184.04024	5.55034E21	1.65497E22	385.09047	7.55722E18
184.25912	5.73918E21	1.63608E22	385.51827	7.67732E18
184.478	5.97963E21	1.61204E22	385.94917	6.65152E18
184.69688	6.17553E21	1.59245E22	386.38007	6.45376E18
184.91576	6.30403E21	1.5796E22	386.80787	6.56457E18
185.13464	6.31459E21	1.57854E22	387.23877	7.82261E18
185.35352	6.47074E21	1.56293E22	387.66967	7.07598E18
185.5724	6.55383E21	1.55462E22	388.09747	7.66907E18
185.79128	6.55868E21	1.55413E22	388.52837	8.01991E18
186.01016	6.65618E21	1.54438E22	388.95927	6.58622E18
186.22904	6.68715E21	1.54129E22	389.38707	7.40494E18
186.44792	6.69853E21	1.54015E22	389.81797	7.89417E18
186.6668	6.76065E21	1.53393E22	390.24887	7.00987E18
186.88568	6.77504E21	1.5325E22	390.67667	6.91593E18
187.10456	6.82767E21	1.52723E22	391.10757	7.14742E18
187.32344	6.87561E21	1.52244E22	391.53847	7.24323E18
187.54232	6.8331E21	1.52669E22	391.96627	6.48724E18
187.7612	6.89214E21	1.52079E22	392.39717	6.46951E18
187.98008	6.87221E21	1.52278E22	392.82807	7.18181E18
188.19896	6.89304E21	1.5207E22	393.25587	6.39669E18
188.41784	6.90767E21	1.51923E22	393.68677	5.09775E18
188.63672	6.8721E21	1.52279E22	394.11767	7.01129E18
188.8556	6.86408E21	1.52359E22	394.54547	7.06713E18
189.07448	6.89663E21	1.52034E22	394.97637	6.56314E18
189.29336	6.87567E21	1.52243E22	395.40727	6.99341E18
189.51224	6.89281E21	1.52072E22	395.83507	7.41614E18
189.73112	7.00564E21	1.50944E22	396.26597	6.17416E18
189.95	6.8613E21	1.52387E22	396.69687	6.79232E18
190.16888	6.90291E21	1.51971E22	397.12467	6.45735E18
190.38776	6.93104E21	1.5169E22	397.55557	6.82151E18
190.60664	6.88702E21	1.5213E22	397.98647	5.98738E18
190.82552	6.95335E21	1.51466E22	398.41427	6.7412E18
191.0444	6.95485E21	1.51451E22	398.84517	7.20448E18
191.26328	6.97341E21	1.51266E22	399.27607	7.37737E18
191.5	6.90092E21	1.51991E22	399.70387	6.98062E18
191.7112	6.95857E21	1.51414E22	400.13477	7.21703E18
191.9224	6.8716E21	1.52284E22	400.56567	6.91343E18
192.1336	6.93403E21	1.5166E22	400.99347	6.84787E18
192.3448	6.86838E21	1.52316E22	401.42437	5.65958E18
192.556	6.94089E21	1.51591E22	401.85527	6.94011E18
192.7672	6.94076E21	1.51592E22	402.28307	6.05413E18
192.9784	6.90856E21	1.51914E22	402.71397	7.64414E18
193.1896	6.89742E21	1.52026E22	403.14487	7.18299E18
193.4008	6.96167E21	1.51383E22	403.57267	7.62034E18
193.612	6.95765E21	1.51423E22	404.00357	6.20425E18
193.8232	6.96668E21	1.51333E22	404.43447	6.58968E18
194.0344	6.91728E21	1.51827E22	404.86227	8.15661E18
194.2456	6.94427E21	1.51557E22	405.29317	7.30873E18
194.4568	6.94747E21	1.51525E22	405.72407	7.93896E18
194.668	6.90849E21	1.51915E22	406.15187	6.74586E18
194.8792	6.96317E21	1.51368E22	406.58277	6.77849E18
195.0904	6.98677E21	1.51132E22	407.01367	7.13989E18
195.3016	6.93305E21	1.51669E22	407.44147	6.4536E18
195.5128	6.94831E21	1.51517E22	407.87237	8.14026E18
195.724	6.90463E21	1.51954E22	408.30327	6.3944E18
195.9352	6.96383E21	1.51362E22	408.73107	6.81407E18
196.1464	6.93283E21	1.51672E22	409.16197	7.60934E18
196.3576	6.92894E21	1.51711E22	409.59287	6.43797E18
196.5688	6.93358E21	1.51664E22	410.02067	7.03042E18
196.78	6.9273E21	1.51727E22	410.45157	6.28767E18
196.9912	6.968E21	1.5132E22	410.88247	6.78454E18
197.2024	6.91775E21	1.51823E22	411.31027	6.81726E18
197.4136	6.9043E21	1.51957E22	411.74117	7.17531E18
197.6248	6.96022E21	1.51398E22	412.17207	7.30522E18
197.836	6.89593E21	1.52041E22	412.59987	7.0319E18
198.0472	6.91096E21	1.5189E22	413.03077	6.90552E18
198.2584	6.89751E21	1.52025E22	413.46167	6.02407E18
198.4696	6.91753E21	1.51825E22	413.88947	5.51244E18
198.6808	6.95311E21	1.51469E22	414.32037	6.55904E18
198.892	6.92211E21	1.51779E22	414.75127	7.10701E18
199.1032	6.95264E21	1.51474E22	415.17907	7.19423E18
199.3144	6.92757E21	1.51724E22	415.60997	6.69778E18
199.5256	6.93321E21	1.51668E22	416.04087	6.17036E18
199.7368	6.96867E21	1.51313E22	416.46867	6.85419E18
199.948	6.9312E21	1.51688E22	416.89957	5.97235E18
200.1592	6.89986E21	1.52001E22	417.33047	6.74315E18
200.3704	6.93846E21	1.51615E22		
200.5816	6.94777E21	1.51522E22		
200.7928	6.94849E21	1.51515E22		
201.004	6.99105E21	1.51089E22		
201.2152	6.92802E21	1.5172E22		
201.4264	6.94732E21	1.51527E22		
201.6376	6.85492E21	1.52451E22		
201.8488	6.93599E21	1.5164E22		
202.06	6.9473E21	1.51527E22		
202.2712	7.00785E21	1.50921E22		
202.4824	6.96657E21	1.51334E22		
202.6936	6.90318E21	1.51968E22		
202.9048	6.91431E21	1.51857E22		
203.116	6.97483E21	1.51252E22		
203.3272	6.93039E21	1.51696E22		
203.5384	6.93954E21	1.51605E22		
203.7496	6.9189E21	1.51811E22		
203.9608	6.94477E21	1.51552E22		
204.172	6.91826E21	1.51817E22		
204.3832	6.87774E21	1.52223E22		
204.5944	6.96619E21	1.51338E22		
204.8056	6.99231E21	1.51077E22		
205.0168	6.9487E21	1.51513E22		
205.228	6.93651E21	1.51635E22		
205.4392	6.95467E21	1.51453E22		
205.6504	6.97045E21	1.51296E22		
205.8616	6.93186E21	1.51681E22		
206.0728	6.92699E21	1.5173E22		
206.284	6.94682E21	1.51532E22		
206.4952	6.91793E21	1.51821E22		
206.7064	6.99013E21	1.51099E22		
206.9176	6.92184E21	1.51782E22		
207.1288	6.95741E21	1.51426E22		
207.34	6.96979E21	1.51302E22		
207.5512	6.9678E21	1.51322E22		
207.7624	6.93646E21	1.51635E22		
207.9736	6.90498E21	1.5195E22		
208.1848	6.97087E21	1.51291E22		
208.396	6.96429E21	1.51357E22		
208.6072	6.89266E21	1.52073E22		
208.8184	6.91274E21	1.51873E22		
209.0296	6.97566E21	1.51243E22		
209.2408	6.88139E21	1.52186E22		
209.452	6.97657E21	1.51234E22		
209.6632	6.93447E21	1.51655E22		
209.8744	6.92138E21	1.51786E22		
210.0856	6.99475E21	1.51053E22		
210.2968	6.99522E21	1.51048E22		
210.508	6.95278E21	1.51472E22		
210.7192	6.91705E21	1.5183E22		
210.9304	6.91789E21	1.51821E22		
211.1416	6.92728E21	1.51727E22		
211.3528	6.96514E21	1.51349E22		
211.564	6.98378E21	1.51162E22		
211.7752	6.94761E21	1.51524E22		
211.9864	6.94565E21	1.51544E22		
212.1976	6.91433E21	1.51857E22		
212.4088	7.01372E21	1.50863E22		
212.62	6.95615E21	1.51439E22		
212.8312	6.93895E21	1.51611E22		
213.0424	6.94505E21	1.5155E22		
213.2536	6.98493E21	1.51151E22		
213.4648	6.9231E21	1.51769E22		
213.676	6.9402E21	1.51598E22		
213.8872	6.94289E21	1.51571E22		
214.0984	6.98388E21	1.51161E22		
214.3096	6.98556E21	1.51144E22		
214.5208	6.95095E21	1.51491E22		
214.732	6.98884E21	1.51112E22		
214.9432	6.93425E21	1.51658E22		
215.1544	6.97187E21	1.51281E22		
215.3656	6.95181E21	1.51482E22		
215.5768	6.92457E21	1.51754E22		
215.788	6.94882E21	1.51512E22		
215.9992	6.96384E21	1.51362E22		
216.2104	6.93395E21	1.51661E22		
216.4216	6.96903E21	1.5131E22		
216.6328	6.96129E21	1.51387E22		
216.844	6.95497E21	1.5145E22		
217.0552	6.92701E21	1.5173E22		
217.2664	6.99145E21	1.51085E22		
217.4776	6.98408E21	1.51159E22		
217.6888	6.93118E21	1.51688E22		
217.9	6.98821E21	1.51118E22		
218.1112	6.92984E21	1.51702E22		
218.3224	6.92828E21	1.51717E22		
218.5336	6.94133E21	1.51587E22		
218.7448	6.95014E21	1.51499E22		
218.956	6.94477E21	1.51552E22		
219.1672	6.93897E21	1.5161E22		
219.3784	6.9853E21	1.51147E22		
219.5896	6.94539E21	1.51546E22		
219.8008	6.99863E21	1.51014E22		
220.012	6.92189E21	1.51781E22		
220.2232	6.94666E21	1.51533E22		
220.4344	6.91551E21	1.51845E22		
220.6456	7.00063E21	1.50994E22		
220.8568	6.88341E21	1.52166E22		
221.068	6.93984E21	1.51602E22		
221.2792	6.94473E21	1.51553E22		
221.4904	6.96055E21	1.51395E22		
221.7016	6.9382E21	1.51618E22		
221.9128	6.90227E21	1.51977E22		
222.124	6.94292E21	1.51571E22		
222.3352	6.9413E21	1.51587E22		
222.5464	6.93281E21	1.51672E22		
222.7576	6.92961E21	1.51704E22		
222.9688	6.98566E21	1.51143E22		
223.18	6.86033E21	1.52397E22		
223.3912	6.99103E21	1.5109E22		
223.6024	6.96744E21	1.51326E22		
223.8136	6.95371E21	1.51463E22		
224.0248	6.93824E21	1.51618E22		
224.236	6.9428E21	1.51572E22		
224.4472	6.93606E21	1.51639E22		
224.6584	6.93886E21	1.51611E22		
224.8696	6.93313E21	1.51669E22		
225.0808	6.91121E21	1.51888E22		
225.292	6.95017E21	1.51498E22		
225.5032	6.99925E21	1.51007E22		
225.7144	6.94522E21	1.51548E22		
225.9256	6.92794E21	1.51721E22		
226.1368	6.97324E21	1.51268E22		
226.348	6.94943E21	1.51506E22		
226.5592	6.94621E21	1.51538E22		
226.7704	7.02805E21	1.50719E22		
226.9816	6.95202E21	1.5148E22		
227.1928	6.91065E21	1.51894E22		
227.404	6.93263E21	1.51674E22		
227.6152	6.88365E21	1.52163E22		
227.8264	6.94226E21	1.51577E22		
228.0376	6.93724E21	1.51628E22		
228.2488	6.93304E21	1.5167E22		
228.46	6.9078E21	1.51922E22		
228.6712	6.97804E21	1.5122E22		
228.8824	6.95981E21	1.51402E22		
229.0936	6.91432E21	1.51857E22		
229.3048	6.95994E21	1.51401E22		
229.516	7.0112E21	1.50888E22		
229.7272	6.94139E21	1.51586E22		
229.9384	6.95501E21	1.5145E22		
230.1496	6.94676E21	1.51532E22		
230.3608	6.92485E21	1.51752E22		
230.572	6.93311E21	1.51669E22		
230.7832	6.94502E21	1.5155E22		
230.9944	6.97467E21	1.51253E22		
231.2056	6.98686E21	1.51131E22		
231.4168	6.93323E21	1.51668E22		
231.628	6.99167E21	1.51083E22		
231.8392	6.98282E21	1.51172E22		
232.0504	6.96584E21	1.51342E22		
232.2616	6.96304E21	1.5137E22		
232.4728	6.92496E21	1.5175E22		
232.684	6.95957E21	1.51404E22		
232.8952	6.91968E21	1.51803E22		
233.1064	6.91782E21	1.51822E22		
233.3176	6.93798E21	1.5162E22		
233.5288	6.93878E21	1.51612E22		
233.74	6.94061E21	1.51594E22		
233.9512	6.99391E21	1.51061E22		
234.1624	6.90788E21	1.51921E22		
234.3736	6.9279E21	1.51721E22		
234.5848	6.9875E21	1.51125E22		
234.796	6.94783E21	1.51522E22		
235.0072	6.92741E21	1.51726E22		
235.2184	6.96577E21	1.51342E22		
235.4296	7.04209E21	1.50579E22		
235.6408	6.89708E21	1.52029E22		
235.852	6.9015E21	1.51985E22		
236.0632	6.92535E21	1.51746E22		
236.2744	6.99902E21	1.5101E22		
236.4856	6.96622E21	1.51338E22		
236.6968	6.94573E21	1.51543E22		
236.908	6.9639E21	1.51361E22		
237.1192	6.95086E21	1.51491E22		
237.3304	6.95785E21	1.51422E22		
237.5416	7.00247E21	1.50975E22		
237.7528	6.98525E21	1.51147E22		
237.964	6.97321E21	1.51268E22		
238.1752	6.94583E21	1.51542E22		
238.3864	6.96774E21	1.51323E22		
238.5976	6.98847E21	1.51115E22		
238.8088	6.97053E21	1.51295E22		
239.02	6.957E21	1.5143E22		
239.2312	6.94189E21	1.51581E22		
239.4424	6.93224E21	1.51678E22		
239.6536	6.98354E21	1.51165E22		
239.8648	6.96737E21	1.51326E22		
240.076	6.94835E21	1.51516E22		
240.2872	6.99213E21	1.51079E22		
240.4984	6.96432E21	1.51357E22		
240.7096	6.93911E21	1.51609E22		
240.9208	6.96848E21	1.51315E22		
241.132	6.95002E21	1.515E22		
241.3432	6.93078E21	1.51692E22		
241.5544	6.93799E21	1.5162E22		
241.7656	6.94568E21	1.51543E22		
241.9768	6.94112E21	1.51589E22		
242.188	6.93717E21	1.51628E22		
242.3992	7.00571E21	1.50943E22		
242.6104	7.00069E21	1.50993E22		
242.8216	6.9734E21	1.51266E22		
243.0328	6.94932E21	1.51507E22		
243.244	6.9757E21	1.51243E22		
243.4552	6.87959E21	1.52204E22		
243.6664	6.98889E21	1.51111E22		
243.8776	6.9456E21	1.51544E22		
244.0888	7.03154E21	1.50685E22		
244.3	6.94692E21	1.51531E22		
244.5112	6.97811E21	1.51219E22		
244.7224	6.96429E21	1.51357E22		
244.9336	6.97627E21	1.51237E22		
245.1448	6.95721E21	1.51428E22		
245.356	6.96477E21	1.51352E22		
245.5672	6.96997E21	1.513E22		
245.7784	6.94109E21	1.51589E22		
245.9896	6.95041E21	1.51496E22		
246.2008	6.98528E21	1.51147E22		
246.412	6.93548E21	1.51645E22		
246.6232	6.96583E21	1.51342E22		
246.8344	6.94076E21	1.51592E22		
247.0456	7.01501E21	1.5085E22		
247.2568	6.98125E21	1.51187E22		
247.468	7.00938E21	1.50906E22		
247.6792	6.98052E21	1.51195E22		
247.8904	6.99062E21	1.51094E22		
248.1016	6.9357E21	1.51643E22		
248.3128	6.93481E21	1.51652E22		
248.524	6.95895E21	1.51411E22		
248.7352	6.9783E21	1.51217E22		
248.9464	6.95194E21	1.51481E22		
249.1576	6.93532E21	1.51647E22		
249.3688	6.95972E21	1.51403E22		
249.58	6.9456E21	1.51544E22		
249.7912	7.00626E21	1.50937E22		
250.0024	6.94459E21	1.51554E22		
250.2136	6.99167E21	1.51083E22		
250.4248	6.96339E21	1.51366E22		
250.636	6.96444E21	1.51356E22		
250.8472	6.97595E21	1.5124E22		
251.0584	6.93338E21	1.51666E22		
251.2696	6.86716E21	1.52328E22		
251.4808	6.86593E21	1.52341E22		
251.692	6.84392E21	1.52561E22		
251.9032	6.7715E21	1.53285E22		
252.1144	6.692E21	1.5408E22		
252.3256	6.67659E21	1.54234E22		
252.5368	6.57784E21	1.55222E22		
252.748	6.56012E21	1.55399E22		
252.9592	6.44111E21	1.56589E22		
253.1704	6.38449E21	1.57155E22		
253.3816	6.34494E21	1.57551E22		
253.5928	6.1613E21	1.59387E22		
253.804	6.09198E21	1.6008E22		
254.0152	5.98567E21	1.61143E22		
254.2264	5.89332E21	1.62067E22		
254.4376	5.70981E21	1.63902E22		
254.6488	5.54252E21	1.65575E22		
254.86	5.37163E21	1.67284E22		
255.0712	5.21322E21	1.68868E22		
255.2824	4.99444E21	1.71056E22		
255.4936	4.81903E21	1.7281E22		
255.7048	4.5927E21	1.75073E22		
255.916	4.38785E21	1.77121E22		
256.1272	4.21248E21	1.78875E22		
256.3384	4.03478E21	1.80652E22		
256.5496	3.885E21	1.8215E22		
256.7608	3.7948E21	1.83052E22		
256.972	3.66859E21	1.84314E22		
257.1832	3.58511E21	1.85149E22		
257.3944	3.60552E21	1.84945E22		
257.6056	3.63569E21	1.84643E22		
257.8168	3.75257E21	1.83474E22		
258.028	3.82362E21	1.82764E22		
258.2392	4.01657E21	1.80834E22		
258.4504	4.22243E21	1.78776E22		
258.6616	4.40375E21	1.76963E22		
258.8728	4.59878E21	1.75012E22		
259.084	4.86044E21	1.72396E22		
259.2952	5.09708E21	1.70029E22		
259.5064	5.34124E21	1.67588E22		
259.7176	5.52918E21	1.65708E22		
259.9288	5.72809E21	1.63719E22		
260.14	5.92906E21	1.61709E22		
260.3512	6.06992E21	1.60301E22		
260.5624	6.24621E21	1.58538E22		
260.7736	6.24245E21	1.58576E22		
260.9848	6.35185E21	1.57482E22		
261.196	6.51948E21	1.55805E22		
261.4072	6.59345E21	1.55066E22		
261.6184	6.64199E21	1.5458E22		
261.8296	6.67348E21	1.54265E22		
262.0408	6.76691E21	1.53331E22		
262.252	6.77229E21	1.53277E22		
262.4632	6.76788E21	1.53321E22		
262.6744	6.85375E21	1.52462E22		
262.8856	6.82885E21	1.52712E22		
263.0968	6.87866E21	1.52213E22		
263.308	6.89077E21	1.52092E22		
263.5192	6.92344E21	1.51766E22		
263.7304	6.95285E21	1.51471E22		
263.9416	6.89736E21	1.52026E22		
264.1528	6.95287E21	1.51471E22		
264.364	6.93565E21	1.51643E22		
264.5752	6.96797E21	1.5132E22		
264.7864	6.9594E21	1.51406E22		
264.9976	7.03067E21	1.50693E22		
265.2088	6.97557E21	1.51244E22		
265.42	6.94841E21	1.51516E22		
265.6312	6.98435E21	1.51156E22		
265.8424	6.97377E21	1.51262E22		
266.0536	6.97461E21	1.51254E22		
266.2648	7.00761E21	1.50924E22		
266.476	6.92516E21	1.51748E22		
266.6872	6.99601E21	1.5104E22		
266.8984	6.99819E21	1.51018E22		
267.1096	7.03274E21	1.50673E22		
267.3208	6.95348E21	1.51465E22		
267.532	6.98036E21	1.51196E22		
267.7432	6.95024E21	1.51498E22		
267.9544	6.91977E21	1.51802E22		
268.1656	7.00933E21	1.50907E22		
268.3768	7.01071E21	1.50893E22		
268.588	6.98867E21	1.51113E22		
268.7992	6.9704E21	1.51296E22		
269.0104	7.01102E21	1.5089E22		
269.2216	7.00142E21	1.50986E22		
269.4328	6.9928E21	1.51072E22		
269.644	6.99552E21	1.51045E22		
269.8552	6.99276E21	1.51072E22		
270.0664	7.03819E21	1.50618E22		
270.2776	6.98883E21	1.51112E22		
270.4888	7.04381E21	1.50562E22		
270.7	7.0133E21	1.50867E22		
270.9112	7.00265E21	1.50973E22		
271.1224	7.03774E21	1.50623E22		
271.3336	7.04103E21	1.5059E22		
271.5448	7.00814E21	1.50919E22		
271.756	6.99195E21	1.5108E22		
271.9672	7.04155E21	1.50585E22		
272.1784	7.00553E21	1.50945E22		
272.3896	7.06354E21	1.50365E22		
272.6008	7.0025E21	1.50975E22		
272.812	7.04027E21	1.50597E22		
273.0232	7.01193E21	1.50881E22		
273.2344	6.98565E21	1.51144E22		
273.4456	6.98397E21	1.5116E22		
273.6568	7.00529E21	1.50947E22		
273.868	7.04001E21	1.506E22		
274.0792	6.9858E21	1.51142E22		
274.2904	7.00283E21	1.50972E22		
274.5016	7.0464E21	1.50536E22		
274.7128	7.01463E21	1.50854E22		
274.924	7.06538E21	1.50346E22		
275.1352	7.04829E21	1.50517E22		
275.3464	7.0296E21	1.50704E22		
275.5576	7.05513E21	1.50449E22		
275.7688	7.06909E21	1.50309E22		
275.98	7.00459E21	1.50954E22		
276.1912	7.03128E21	1.50687E22		
276.4024	7.02354E21	1.50765E22		
276.6136	6.99705E21	1.5103E22		
276.8248	7.05398E21	1.5046E22		
277.036	7.03477E21	1.50652E22		
277.2472	7.02791E21	1.50721E22		
277.4584	7.04181E21	1.50582E22		
277.6696	7.05767E21	1.50423E22		
277.8808	7.02918E21	1.50708E22		
278.092	7.01364E21	1.50864E22		
278.3032	7.0531E21	1.50469E22		
278.5144	6.94472E21	1.51553E22		
278.7256	7.00709E21	1.50929E22		
278.9368	7.04801E21	1.5052E22		
279.148	6.99203E21	1.5108E22		
279.3592	6.96922E21	1.51308E22		
279.5704	7.09643E21	1.50036E22		
279.7816	6.93546E21	1.51645E22		
279.9928	6.9364E21	1.51636E22		
280.204	6.93069E21	1.51693E22		
280.4152	6.84215E21	1.52578E22		
280.6264	6.85391E21	1.52461E22		
280.8376	6.73678E21	1.53632E22		
281.0488	6.69507E21	1.54049E22		
281.26	6.63577E21	1.54642E22		
281.4712	6.55633E21	1.55437E22		
281.6824	6.49328E21	1.56067E22		
281.8936	6.43928E21	1.56607E22		
282.1048	6.30011E21	1.57999E22		
282.316	6.20437E21	1.58956E22		
282.5272	6.10554E21	1.59945E22		
282.7384	5.99836E21	1.61016E22		
282.9496	5.82055E21	1.62795E22		
283.1608	5.73635E21	1.63636E22		
283.372	5.51829E21	1.65817E22		
283.5832	5.36951E21	1.67305E22		
283.7944	5.09133E21	1.70087E22		
284.0056	4.9302E21	1.71698E22		
284.2168	4.70173E21	1.73983E22		
284.428	4.43226E21	1.76677E22		
284.6392	4.18842E21	1.79116E22		
284.8504	3.92496E21	1.8175E22		
285.0616	3.65216E21	1.84478E22		
285.2728	3.37214E21	1.87279E22		
285.484	3.13566E21	1.89643E22		
285.6952	2.87107E21	1.92289E22		
285.9064	2.67316E21	1.94268E22		
286.1176	2.45592E21	1.96441E22		
286.3288	2.27789E21	1.98221E22		
286.54	2.15746E21	1.99425E22		
286.7512	2.036E21	2.0064E22		
286.9624	1.97688E21	2.01231E22		
287.1736	1.89809E21	2.02019E22		
287.3848	1.8805E21	2.02195E22		
287.596	1.88076E21	2.02192E22		
287.8072	1.925E21	2.0175E22		
288.0184	2.00273E21	2.00973E22		
288.2296	2.09172E21	2.00083E22		
288.4408	2.239E21	1.9861E22		
288.652	2.36533E21	1.97347E22		
288.8632	2.554E21	1.9546E22		
289.0744	2.80113E21	1.92989E22		
289.2856	3.07872E21	1.90213E22		
289.4968	3.30368E21	1.87963E22		
289.708	3.58535E21	1.85147E22		
289.9192	3.9053E21	1.81947E22		
290.1304	4.17483E21	1.79252E22		
290.3416	4.4769E21	1.76231E22		
290.5528	4.80086E21	1.72991E22		
290.764	4.9975E21	1.71025E22		
290.9752	5.27404E21	1.6826E22		
291.1864	5.55091E21	1.65491E22		
291.3976	5.74052E21	1.63595E22		
291.6088	5.9521E21	1.61479E22		
291.82	6.06162E21	1.60384E22		
292.0312	6.25368E21	1.58463E22		
292.2424	6.36447E21	1.57355E22		
292.4536	6.43789E21	1.56621E22		
292.6648	6.57773E21	1.55223E22		
292.876	6.61706E21	1.54829E22		
293.0872	6.64314E21	1.54569E22		
293.2984	6.722E21	1.5378E22		
293.5096	6.78642E21	1.53136E22		
293.7208	6.82504E21	1.5275E22		
293.932	6.83921E21	1.52608E22		
294.1432	6.83918E21	1.52608E22		
294.3544	6.92997E21	1.517E22		
294.5656	6.91839E21	1.51816E22		
294.7768	6.92973E21	1.51703E22		
294.988	6.89243E21	1.52076E22		
295.1992	6.99338E21	1.51066E22		
295.4104	6.91363E21	1.51864E22		
295.6216	6.92771E21	1.51723E22		
295.8328	6.97539E21	1.51246E22		
296.044	6.95819E21	1.51418E22		
296.2552	6.99527E21	1.51047E22		
296.4664	7.07127E21	1.50287E22		
296.6776	6.94767E21	1.51523E22		
296.8888	7.04206E21	1.50579E22		
297.1	7.03723E21	1.50628E22		
297.3112	7.02152E21	1.50785E22		
297.5224	6.97301E21	1.5127E22		
297.7336	7.00735E21	1.50926E22		
297.9448	6.96468E21	1.51353E22		
298.156	7.05985E21	1.50402E22		
298.3672	7.00719E21	1.50928E22		
298.5784	7.05597E21	1.5044E22		
298.7896	7.01957E21	1.50804E22		
299.0008	7.03869E21	1.50613E22		
299.212	7.04976E21	1.50502E22		
299.4232	7.01184E21	1.50882E22		
299.6344	7.02787E21	1.50721E22		
299.8456	7.07057E21	1.50294E22		
300.0568	7.0878E21	1.50122E22		
300.268	7.07865E21	1.50214E22		
300.4792	7.04985E21	1.50502E22		
300.6904	7.04217E21	1.50578E22		
300.9016	7.02346E21	1.50765E22		
301.1128	6.99174E21	1.51083E22		
301.324	7.00947E21	1.50905E22		
301.5352	7.07583E21	1.50242E22		
301.7464	7.08214E21	1.50179E22		
301.9576	7.08058E21	1.50194E22		
302.1688	7.04636E21	1.50536E22		
302.38	7.03058E21	1.50694E22		
302.5912	6.98945E21	1.51106E22		
302.8024	7.02355E21	1.50765E22		
303.0136	6.97606E21	1.51239E22		
303.2248	7.06593E21	1.50341E22		
303.436	7.05368E21	1.50463E22		
303.6472	7.01414E21	1.50859E22		
303.8584	7.042E21	1.5058E22		
304.0696	6.97238E21	1.51276E22		
304.2808	7.02689E21	1.50731E22		
304.492	7.02268E21	1.50773E22		
304.7032	7.03286E21	1.50671E22		
304.9144	7.03686E21	1.50631E22		
305.1256	7.0487E21	1.50513E22		
305.3368	7.03006E21	1.50699E22		
305.548	7.03746E21	1.50625E22		
305.7592	7.02124E21	1.50788E22		
305.9704	7.06198E21	1.5038E22		
306.1816	7.06462E21	1.50354E22		
306.3928	6.95287E21	1.51471E22		
306.604	7.0549E21	1.50451E22		
306.8152	7.08353E21	1.50165E22		
307.0264	6.99653E21	1.51035E22		
307.2376	7.05734E21	1.50427E22		
307.4488	7.02561E21	1.50744E22		
307.66	7.06731E21	1.50327E22		
307.8712	7.00943E21	1.50906E22		
308.0824	7.07425E21	1.50257E22		
308.2936	7.06701E21	1.5033E22		
308.5048	7.05283E21	1.50472E22		
308.716	7.03186E21	1.50681E22		
308.9272	7.07522E21	1.50248E22		
309.1384	7.03109E21	1.50689E22		
309.3496	7.0266E21	1.50734E22		
309.5608	7.06723E21	1.50328E22		
309.772	6.98473E21	1.51153E22		
309.9832	7.00549E21	1.50945E22		
310.1944	7.06478E21	1.50352E22		
310.4056	7.08392E21	1.50161E22		
310.6168	7.06475E21	1.50352E22		
310.828	7.10926E21	1.49907E22		
311.0392	6.99044E21	1.51096E22		
311.2504	7.04797E21	1.5052E22		
311.4616	7.00917E21	1.50908E22		
311.6728	6.98905E21	1.51109E22		
311.884	7.03542E21	1.50646E22		
312.0952	7.04978E21	1.50502E22		
312.3064	7.05063E21	1.50494E22		
312.5176	6.99197E21	1.5108E22		
312.7288	7.05818E21	1.50418E22		
312.94	7.05525E21	1.50448E22		
313.1512	6.99726E21	1.51027E22		
313.3624	7.01603E21	1.5084E22		
313.5736	7.02598E21	1.5074E22		
313.7848	7.02364E21	1.50764E22		
313.996	7.04982E21	1.50502E22		
314.2072	7.05155E21	1.50485E22		
314.4184	7.06083E21	1.50392E22		
314.6296	7.01297E21	1.5087E22		
314.8408	7.02139E21	1.50786E22		
315.052	7.02745E21	1.50725E22		
315.2632	7.09499E21	1.5005E22		
315.4744	7.06851E21	1.50315E22		
315.6856	7.05941E21	1.50406E22		
315.8968	7.01872E21	1.50813E22		
316.108	7.08546E21	1.50145E22		
316.3192	7.04241E21	1.50576E22		
316.5304	7.03703E21	1.5063E22		
316.7416	7.04197E21	1.5058E22		
316.9528	7.06336E21	1.50366E22		
317.164	7.04522E21	1.50548E22		
317.3752	7.08029E21	1.50197E22		
317.5864	7.02568E21	1.50743E22		
317.7976	7.0718E21	1.50282E22		
318.0088	7.02738E21	1.50726E22		
318.22	7.10864E21	1.49914E22		
318.4312	7.07509E21	1.50249E22		
318.6424	7.07996E21	1.502E22		
318.8536	7.07467E21	1.50253E22		
319.0648	7.02282E21	1.50772E22		
319.276	7.06749E21	1.50325E22		
319.4872	7.06862E21	1.50314E22		
319.6984	7.07891E21	1.50211E22		
319.9096	7.05236E21	1.50476E22		
320.1208	7.07884E21	1.50212E22		
320.332	7.08242E21	1.50176E22		
320.5432	7.05686E21	1.50431E22		
320.7544	7.04498E21	1.5055E22		
320.9656	7.0603E21	1.50397E22		
321.1768	7.09415E21	1.50058E22		
321.388	7.05662E21	1.50434E22		
321.5992	6.99572E21	1.51043E22		
321.8104	7.06351E21	1.50365E22		
322.0216	7.06525E21	1.50348E22		
322.2328	7.06898E21	1.5031E22		
322.444	7.10475E21	1.49952E22		
322.6552	7.06839E21	1.50316E22		
322.8664	7.08233E21	1.50177E22		
323.0776	7.08972E21	1.50103E22		
323.2888	7.11653E21	1.49835E22		
323.5	7.04146E21	1.50585E22		
323.7112	7.1231E21	1.49769E22		
323.9224	6.99874E21	1.51013E22		
324.1336	7.03527E21	1.50647E22		
324.3448	7.05231E21	1.50477E22		
324.556	7.04556E21	1.50544E22		
324.7672	7.08267E21	1.50173E22		
324.9784	7.11051E21	1.49895E22		
325.1896	7.08731E21	1.50127E22		
325.4008	7.08358E21	1.50164E22		
325.612	7.05877E21	1.50412E22		
325.8232	7.031E21	1.5069E22		
326.0344	7.0253E21	1.50747E22		
326.2456	7.04524E21	1.50548E22		
326.4568	7.09909E21	1.50009E22		
326.668	7.10473E21	1.49953E22		
326.8792	7.05446E21	1.50455E22		
327.0904	7.10202E21	1.4998E22		
327.3016	7.07562E21	1.50244E22		
327.5128	7.01802E21	1.5082E22		
327.724	7.04595E21	1.5054E22		
327.9352	7.07176E21	1.50282E22		
328.1464	7.02215E21	1.50778E22		
328.3576	7.12461E21	1.49754E22		
328.5688	7.04583E21	1.50542E22		
328.78	7.05163E21	1.50484E22		
328.9912	7.04832E21	1.50517E22		
329.2024	7.0632E21	1.50368E22		
329.4136	7.06082E21	1.50392E22		
329.6248	7.07616E21	1.50238E22		
329.836	7.07072E21	1.50293E22		
330.0472	7.05995E21	1.504E22		
330.2584	7.04192E21	1.50581E22		
330.4696	7.0488E21	1.50512E22		
330.6808	7.10862E21	1.49914E22		
330.892	7.10637E21	1.49936E22		
331.1032	7.07271E21	1.50273E22		
331.3144	7.04316E21	1.50568E22		
331.5256	7.09343E21	1.50066E22		
331.7368	7.04912E21	1.50509E22		
331.948	7.06674E21	1.50333E22		
332.1592	7.08583E21	1.50142E22		
332.3704	7.05399E21	1.5046E22		
332.5816	7.07479E21	1.50252E22		
332.7928	7.07689E21	1.50231E22		
333.004	7.10777E21	1.49922E22		
333.2152	7.11728E21	1.49827E22		
333.4264	7.04106E21	1.50589E22		
333.6376	7.1015E21	1.49985E22		
333.8488	7.04039E21	1.50596E22		
334.06	7.0908E21	1.50092E22		
334.2712	7.12026E21	1.49797E22		
334.4824	7.0972E21	1.50028E22		
334.6936	7.11342E21	1.49866E22		
334.9048	7.09878E21	1.50012E22		
335.116	7.06457E21	1.50354E22		
335.3272	7.14738E21	1.49526E22		
335.5384	7.03291E21	1.50671E22		
335.7496	7.12146E21	1.49785E22		
335.9608	7.13162E21	1.49684E22		
336.172	7.08903E21	1.5011E22		
336.3832	7.08085E21	1.50192E22		
336.5944	7.13382E21	1.49662E22		
336.8056	7.12305E21	1.49769E22		
337.0168	7.08678E21	1.50132E22		
337.228	7.04689E21	1.50531E22		
337.4392	7.12427E21	1.49757E22		
337.6504	7.13701E21	1.4963E22		
337.8616	7.11448E21	1.49855E22		
338.0728	7.11714E21	1.49829E22		
338.284	7.09078E21	1.50092E22		
338.4952	7.10966E21	1.49903E22		
338.7064	7.08593E21	1.50141E22		
338.9176	7.10914E21	1.49909E22		
339.1288	7.05955E21	1.50404E22		
339.34	7.09771E21	1.50023E22		
339.5512	7.08867E21	1.50113E22		
339.7624	7.12137E21	1.49786E22		
339.9736	7.12232E21	1.49777E22		
340.1848	7.13919E21	1.49608E22		
340.396	7.07971E21	1.50203E22		
340.6072	7.09914E21	1.50009E22		
340.8184	7.09461E21	1.50054E22		
341.0296	7.08379E21	1.50162E22		
341.2408	7.07061E21	1.50294E22		
341.452	7.08753E21	1.50125E22		
341.6632	7.05458E21	1.50454E22		
341.8744	7.131E21	1.4969E22		
342.0856	7.10348E21	1.49965E22		
342.2968	7.12505E21	1.49749E22		
342.508	7.08173E21	1.50183E22		
342.7192	7.1287E21	1.49713E22		
342.9304	7.17437E21	1.49256E22		
343.1416	7.13695E21	1.49631E22		
343.3528	7.13219E21	1.49678E22		
343.564	7.16437E21	1.49356E22		
343.7752	7.11256E21	1.49874E22		
343.9864	7.12095E21	1.4979E22		
344.1976	7.08784E21	1.50122E22		
344.4088	7.12344E21	1.49766E22		
344.62	7.14784E21	1.49522E22		
344.8312	7.16584E21	1.49342E22		
345.0424	7.12195E21	1.4978E22		
345.2536	7.09926E21	1.50007E22		
345.4648	7.17855E21	1.49214E22		
345.676	7.12272E21	1.49773E22		
345.8872	7.16581E21	1.49342E22		
346.0984	7.09224E21	1.50078E22		
346.3096	7.11551E21	1.49845E22		
346.5208	7.1193E21	1.49807E22		
346.732	7.14748E21	1.49525E22		
346.9432	7.0922E21	1.50078E22		
347.1544	7.12015E21	1.49798E22		
347.3656	7.12942E21	1.49706E22		
347.5768	7.1415E21	1.49585E22		
347.788	7.12412E21	1.49759E22		
347.9992	7.16956E21	1.49304E22		
348.2104	7.12022E21	1.49798E22		
348.4216	7.18926E21	1.49107E22		
348.6328	7.09971E21	1.50003E22		
348.844	7.09395E21	1.50061E22		
349.0552	7.12502E21	1.4975E22		
349.2664	7.15114E21	1.49489E22		
349.4776	7.1705E21	1.49295E22		
349.6888	7.12697E21	1.4973E22		
349.9	7.16507E21	1.49349E22		
350.1112	7.11781E21	1.49822E22		
350.3224	7.08402E21	1.5016E22		
350.5336	7.1157E21	1.49843E22		
350.7448	7.11583E21	1.49842E22		
350.956	7.11381E21	1.49862E22		
351.1672	7.1503E21	1.49497E22		
351.3784	7.10286E21	1.49971E22		
351.5896	7.10051E21	1.49995E22		
351.8008	7.15505E21	1.49449E22		
352.012	7.13468E21	1.49653E22		
352.2232	7.14406E21	1.49559E22		
352.4344	7.15114E21	1.49489E22		
352.6456	7.10698E21	1.4993E22		
352.8568	7.13855E21	1.49614E22		
353.068	7.14573E21	1.49543E22		
353.2792	7.12993E21	1.49701E22		
353.4904	7.16806E21	1.49319E22		
353.7016	7.20183E21	1.48982E22		
353.9128	7.1312E21	1.49688E22		
354.124	7.19159E21	1.49084E22		
354.3352	7.17654E21	1.49235E22		
354.5464	7.10319E21	1.49968E22		
354.7576	7.13622E21	1.49638E22		
354.9688	7.10442E21	1.49956E22		
355.18	7.12936E21	1.49706E22		
355.3912	7.18393E21	1.49161E22		
355.6024	7.16753E21	1.49325E22		
355.8136	7.13721E21	1.49628E22		
356.0248	7.1423E21	1.49577E22		
356.236	7.14679E21	1.49532E22		
356.4472	7.13022E21	1.49698E22		
356.6584	7.14561E21	1.49544E22		
356.8696	7.09515E21	1.50049E22		
357.0808	7.08783E21	1.50122E22		
357.292	7.10556E21	1.49944E22		
357.5032	7.10734E21	1.49927E22		
357.7144	7.01556E21	1.50844E22		
357.9256	7.05199E21	1.5048E22		
358.1368	7.04267E21	1.50573E22		
358.348	6.97238E21	1.51276E22		
358.5592	6.92928E21	1.51707E22		
358.7704	6.88748E21	1.52125E22		
358.9816	6.83977E21	1.52602E22		
359.1928	6.71619E21	1.53838E22		
359.404	6.72672E21	1.53733E22		
359.6152	6.65486E21	1.54451E22		
359.8264	6.6038E21	1.54962E22		
360.0376	6.51041E21	1.55896E22		
360.2488	6.43272E21	1.56673E22		
360.46	6.33054E21	1.57695E22		
360.6712	6.20512E21	1.58949E22		
360.8824	6.15191E21	1.59481E22		
361.0936	6.02464E21	1.60754E22		
361.3048	5.97353E21	1.61265E22		
361.516	5.88142E21	1.62186E22		
361.7272	5.76298E21	1.6337E22		
361.9384	5.63251E21	1.64675E22		
362.1496	5.53971E21	1.65603E22		
362.3608	5.35262E21	1.67474E22		
362.572	5.21392E21	1.68861E22		
362.7832	4.99494E21	1.71051E22		
362.9944	4.73745E21	1.73625E22		
363.2056	4.5657E21	1.75343E22		
363.4168	4.29486E21	1.78051E22		
363.628	4.09586E21	1.80041E22		
363.8392	3.79389E21	1.83061E22		
364.0504	3.50439E21	1.85956E22		
364.2616	3.23342E21	1.88666E22		
364.4728	2.99235E21	1.91077E22		
364.684	2.67396E21	1.9426E22		
364.8952	2.41139E21	1.96886E22		
365.1064	2.14999E21	1.995E22		
365.3176	1.88421E21	2.02158E22		
365.5288	1.66427E21	2.04357E22		
365.74	1.4549E21	2.06451E22		
365.9512	1.23844E21	2.08616E22		
366.1624	1.09274E21	2.10073E22		
366.3736	9.23974E20	2.1176E22		
366.5848	8.0607E20	2.12939E22		
366.796	6.71427E20	2.14286E22		
367.0072	5.69173E20	2.15308E22		
367.2184	4.76417E20	2.16236E22		
367.4296	4.0556E20	2.16944E22		
367.6408	3.31261E20	2.17687E22		
367.852	2.90071E20	2.18099E22		
368.0632	2.29952E20	2.187E22		
368.2744	1.87369E20	2.19126E22		
368.4856	1.5253E20	2.19475E22		
368.6968	1.48475E20	2.19515E22		
368.908	1.14545E20	2.19855E22		
369.1192	9.3217E19	2.20068E22		
369.3304	7.8006E19	2.2022E22		
369.5416	7.12175E19	2.20288E22		
369.7528	6.53469E19	2.20347E22		
369.964	4.59499E19	2.20541E22		
370.1752	4.92587E19	2.20507E22		
370.3864	3.82542E19	2.20617E22		
370.5976	3.17146E19	2.20683E22		
370.8088	2.84013E19	2.20716E22		
371.02	2.92105E19	2.20708E22		
371.2312	2.31423E19	2.20769E22		
371.4424	2.02972E19	2.20797E22		
371.6536	1.69003E19	2.20831E22		
371.8648	1.31768E19	2.20868E22		
372.076	1.44639E19	2.20855E22		
372.2872	1.15871E19	2.20884E22		
372.4984	7.71466E18	2.20923E22		
372.7096	1.16215E19	2.20884E22		
372.9208	8.90797E18	2.20911E22		
373.132	8.51593E18	2.20915E22		
373.3432	9.27893E18	2.20907E22		
373.5544	5.85689E18	2.20941E22		
373.7656	5.65592E18	2.20943E22		
373.9768	5.10164E18	2.20949E22		
374.188	3.79403E18	2.20962E22		
374.3992	5.12455E18	2.20949E22		
374.6104	7.62089E18	2.20924E22		
374.8216	3.80723E18	2.20962E22		
375.0328	5.48114E18	2.20945E22		
375.244	3.76831E18	2.20962E22		
375.4552	3.23177E18	2.20968E22		
375.6664	5.68764E18	2.20943E22		
375.8776	3.97281E18	2.2096E22		
376.0888	3.97499E18	2.2096E22		
376.3	4.16049E18	2.20958E22		
376.5112	3.21349E18	2.20968E22		
376.7224	3.78291E18	2.20962E22		
376.9336	4.36497E18	2.20956E22		
377.1448	3.25041E18	2.20967E22		
377.356	2.82999E18	2.20972E22		
377.5672	4.17653E18	2.20958E22		
377.7784	3.01046E18	2.2097E22		
377.9896	1.89551E18	2.20981E22		
378.2008	1.70904E18	2.20983E22		
378.412	3.60655E18	2.20964E22		
378.6232	2.84703E18	2.20972E22		
378.8344	1.6972E18	2.20983E22		
379.0456	1.51629E18	2.20985E22		
379.2568	3.04036E18	2.2097E22		
379.468	2.47278E18	2.20975E22		
379.6792	2.09351E18	2.20979E22		
379.8904	1.88926E18	2.20981E22		
380.1016	2.08499E18	2.20979E22		
380.3128	1.13962E18	2.20989E22		
380.524	1.89891E18	2.20981E22		
380.7352	2.08903E18	2.20979E22		
380.9464	2.27377E18	2.20977E22		
381.1576	1.8937E18	2.20981E22		
381.3688	1.32904E18	2.20987E22		
381.58	2.26734E18	2.20977E22		
381.7912	3.03986E18	2.2097E22		
382.0024	2.64921E18	2.20974E22		
382.2136	2.46638E18	2.20975E22		
382.4248	1.89693E18	2.20981E22		
382.636	1.70612E18	2.20983E22		
382.8472	2.44541E18	2.20976E22		
383.0584	2.26109E18	2.20977E22		
383.2696	1.51156E18	2.20985E22		
383.4808	1.13227E18	2.20989E22		
383.692	1.89013E18	2.20981E22		
383.9032	1.70556E18	2.20983E22		
384.1144	1.89137E18	2.20981E22		
384.3256	2.26915E18	2.20977E22		
384.5368	2.4509E18	2.20975E22		
384.748	1.32446E18	2.20987E22		
384.9592	1.89183E18	2.20981E22		
385.1704	3.75866E18	2.20962E22		
385.3816	2.26067E18	2.20977E22		
385.5928	1.69555E18	2.20983E22		
385.804	1.69687E18	2.20983E22		
386.0152	3.21091E18	2.20968E22		
386.2264	1.32318E18	2.20987E22		
386.4376	1.3174E18	2.20987E22		
386.6488	1.51172E18	2.20985E22		
386.86	1.51297E18	2.20985E22		
387.0712	1.12764E18	2.20989E22		
387.2824	2.456E18	2.20975E22		
387.4936	2.8281E18	2.20972E22		
387.7048	1.89044E18	2.20981E22		
387.916	1.69659E18	2.20983E22		
388.1272	1.69403E18	2.20983E22		
388.3384	3.03468E18	2.2097E22		
388.5496	2.07125E18	2.20979E22		
388.7608	2.27452E18	2.20977E22		
388.972	2.64627E18	2.20974E22		
389.1832	1.13416E18	2.20989E22		
389.3944	2.63636E18	2.20974E22		
389.6056	2.07051E18	2.20979E22		
389.8168	1.88797E18	2.20981E22		
390.028	1.31849E18	2.20987E22		
390.2392	2.26503E18	2.20977E22		
390.4504	2.83947E18	2.20972E22		
390.6616	2.27494E18	2.20977E22		
390.8728	1.89193E18	2.20981E22		
391.084	1.32049E18	2.20987E22		
391.2952	1.89299E18	2.20981E22		
391.5064	1.88628E18	2.20981E22		
391.7176	1.31991E18	2.20987E22		
391.9288	1.70109E18	2.20983E22		
392.14	2.46021E18	2.20975E22		
392.3512	3.7571E17	2.20996E22		
392.5624	1.31776E18	2.20987E22		
392.7736	1.69783E18	2.20983E22		
392.9848	2.26305E18	2.20977E22		
393.196	1.13562E18	2.20989E22		
393.4072	2.82754E18	2.20972E22		
393.6184	2.25692E18	2.20977E22		
393.8296	2.44846E18	2.20976E22		
394.0408	1.32298E18	2.20987E22		
394.252	2.07996E18	2.20979E22		
394.4632	1.7049E18	2.20983E22		
394.6744	9.38377E17	2.20991E22		
394.8856	2.63101E18	2.20974E22		
395.0968	9.43421E17	2.20991E22		
395.308	1.69427E18	2.20983E22		
395.5192	1.5005E18	2.20985E22		
395.7304	2.43993E18	2.20976E22		
395.9416	1.13037E18	2.20989E22		
396.1528	9.47207E17	2.20991E22		
396.364	1.8719E18	2.20981E22		
396.5752	1.31543E18	2.20987E22		
396.7864	2.07155E18	2.20979E22		
396.9976	5.66568E17	2.20994E22		
397.2088	1.69549E18	2.20983E22		
397.42	7.49518E17	2.20993E22		
397.6312	9.48499E17	2.20991E22		
397.8424	1.12538E18	2.20989E22		
398.0536	2.06913E18	2.20979E22		
398.2648	1.31867E18	2.20987E22		
398.476	1.12858E18	2.20989E22		
398.6872	1.6913E18	2.20983E22		
398.8984	2.44595E18	2.20976E22		
399.1096	1.31842E18	2.20987E22		
399.3208	7.5084E17	2.20992E22		
399.532	1.31529E18	2.20987E22		
399.7432	2.06852E18	2.20979E22		
399.9544	1.12703E18	2.20989E22		
400.1656	9.41803E17	2.20991E22		
400.3768	1.89035E18	2.20981E22		
400.588	1.50612E18	2.20985E22		
400.7992	2.06226E18	2.20979E22		
401.0104	1.88657E18	2.20981E22		
401.2216	1.68894E18	2.20983E22		
401.4328	1.68806E18	2.20983E22		
401.644	2.25924E18	2.20977E22		
401.8552	1.31277E18	2.20987E22		
402.0664	1.88481E18	2.20981E22		
402.2776	2.07804E18	2.20979E22		
402.4888	7.5439E17	2.20992E22		
402.7	1.89618E18	2.20981E22		
402.9112	2.0646E18	2.20979E22		
403.1224	2.4618E18	2.20975E22		
403.3336	1.88159E18	2.20981E22		
403.5448	1.51668E18	2.20985E22		
403.756	1.50519E18	2.20985E22		
403.9672	1.69557E18	2.20983E22		
404.1784	3.75355E17	2.20996E22		
404.3896	2.25537E18	2.20977E22		
404.6008	1.70139E18	2.20983E22		
404.812	1.12735E18	2.20989E22		
405.0232	1.50777E18	2.20985E22		
405.2344	1.30962E18	2.20987E22		
405.4456	1.1366E18	2.20989E22		
405.6568	1.12706E18	2.20989E22		
405.868	5.66215E17	2.20994E22		
406.0792	7.53533E17	2.20992E22		
406.2904	1.50724E18	2.20985E22		
406.5016	1.13145E18	2.20989E22		
406.7128	5.64317E17	2.20994E22		
406.924	9.39687E17	2.20991E22		
407.1352	1.88311E18	2.20981E22		
407.3464	9.46645E17	2.20991E22		
407.5576	1.31773E18	2.20987E22		
407.7688	1.13091E18	2.20989E22		
407.98	5.65942E17	2.20994E22		
408.1912	1.7021E18	2.20983E22		
408.4024	1.50611E18	2.20985E22		
408.6136	1.51103E18	2.20985E22		
408.8248	7.5143E17	2.20992E22		
409.036	9.42926E17	2.20991E22		
409.2472	1.32479E18	2.20987E22		
409.4584	1.49908E18	2.20985E22		
409.6696	9.40394E17	2.20991E22		
409.8808	1.70219E18	2.20983E22		
410.092	1.50705E18	2.20985E22		
410.3032	1.87287E18	2.20981E22		
410.5144	1.69675E18	2.20983E22		
410.7256	2.25272E18	2.20977E22		
410.9368	1.68628E18	2.20983E22		
411.148	1.87648E18	2.20981E22		
411.3592	1.88475E18	2.20981E22		
411.5704	5.61418E17	2.20994E22		
411.7816	1.69854E18	2.20983E22		
411.9928	1.12908E18	2.20989E22		
412.204	9.37632E17	2.20991E22		
412.4152	1.50062E18	2.20985E22		
412.6264	1.51308E18	2.20985E22		
412.8376	5.63542E17	2.20994E22		
413.0488	1.12829E18	2.20989E22		
413.26	1.50361E18	2.20985E22		
413.4712	1.88296E18	2.20981E22		
413.6824	1.5083E18	2.20985E22		
413.8936	9.45098E17	2.20991E22		
414.1048	1.87955E18	2.20981E22		
414.316	1.87587E18	2.20981E22		
414.5272	7.55275E17	2.20992E22		
414.7384	1.6942E18	2.20983E22		
414.9496	9.37438E17	2.20991E22		
415.1608	2.25525E18	2.20977E22		
415.372	1.68646E18	2.20983E22		
415.5832	1.32303E18	2.20987E22		
415.7944	1.88711E18	2.20981E22		
416.0056	1.132E18	2.20989E22		